*** Darwin 15x10 ***
Turn = 0.
  0123456789
0 ff..f.r..h
1 ...r..ff..
2 hf.t......
3 ..tr......
4 ..t.......
5 .f....f..h
6 ...t....t.
7 .f.h.....t
8 ...ft..rh.
9 .tr.rh....
0 ....frh.th
1 f..t......
2 rfh.f.t...
3 ....hr....
4 f..r...hr.

Turn = 12.
  0123456789
0 ff.......r
1 ..........
2 hf.t......
3 ..ttt.....
4 ..t..r.r.r
5 rf....rr..
6 ...t..rhrt
7 .f.t....tt
8 ...tt...tt
9 .t.t.....t
0 ....t...tr
1 ...tt....r
2 r...ttt...
3 ......t...
4 rrr...t...

Turn = 24.
  0123456789
0 r.rrrr..r.
1 r.........
2 rt.t.....r
3 .tttt.....
4 ..t.t....r
5 ...r.....r
6 ..tr.....t
7 .ftt....tt
8 ...tt...tt
9 .t.t.....t
0 ....t...tt
1 ...tt....t
2 ....ttt...
3 ......t...
4 ....rrt...

Turn = 36.
  0123456789
0 ...rr...r.
1 .rt.......
2 .ttrt.....
3 .tttt.....
4 r.tttt....
5 .........r
6 r.tt.....t
7 .ttt....tt
8 ...tt...tt
9 .t.t.....t
0 ....t...tt
1 ...tt....t
2 ....ttt...
3 .....tt...
4 r.....t...

Turn = 48.
  0123456789
0 r.r.......
1 .rt.......
2 .tttt.....
3 .tttt.....
4 ..tttt....
5 r........r
6 ..tt.....t
7 .ttt....tt
8 ...tt...tt
9 .t.t.....t
0 ....t...tt
1 ...tt....t
2 r...ttt..r
3 .....tt...
4 .r...t....

Turn = 60.
  0123456789
0 ..........
1 .rt.......
2 .tttt.....
3 .tttt.....
4 ..tttt...r
5 .........r
6 .ttt.....t
7 tttt....tt
8 .t.tt...tt
9 .t.t.....t
0 ....t...tt
1 ...tt.r..t
2 ....trr..r
3 .....r...r
4 .....r....

Turn = 72.
  0123456789
0 ....r.r...
1 .rt...r...
2 .tttt.....
3 .tttt.....
4 ..tttt....
5 .........r
6 .ttt.....t
7 tttt....tt
8 .t.tt...tt
9 .t.t.....t
0 r...t...tt
1 ...tt....t
2 ....tt...r
3 ........rr
4 ..........

Turn = 84.
  0123456789
0 ....r.....
1 .rt.......
2 .tttt.....
3 .ttttt....
4 ..tttt....
5 r........r
6 .ttt.....t
7 rttt....tt
8 tt.tt...tt
9 .t.t.....t
0 ....t...tt
1 ...tt....t
2 ....tt...r
3 ........rr
4 ..........

Turn = 96.
  0123456789
0 r.rrr.....
1 .r.r......
2 .r.r......
3 ..rrtt....
4 rttttt....
5 .........r
6 ..tt.....t
7 rttt....tt
8 tt.tt...tt
9 .t.t.....t
0 ....t...tt
1 ...tt....t
2 ....tt...r
3 ........rr
4 ..........

Turn = 108.
  0123456789
0 .r........
1 .....r....
2 rr..rr....
3 .rrr.t....
4 r.rttt...r
5 rr.......r
6 r..t.....t
7 rttt....tt
8 tt.tt...tt
9 .t.t.....t
0 ....t...tt
1 ...tt....t
2 ....tt...r
3 ........rr
4 ..........

Turn = 120.
  0123456789
0 ...rrr.r..
1 ..........
2 ..........
3 r....tr...
4 rrrttt....
5 rr..t...rr
6 r.rt....rr
7 ..tt...r.r
8 ...tt...tt
9 ...t...r.t
0 ....t...tt
1 ...tt....t
2 .r..tt...r
3 .r......rr
4 r.........

Turn = 132.
  0123456789
0 ..r.r.r...
1 ...r......
2 r.........
3 ....tt....
4 ...tt.....
5 ...tt....r
6 .rttt.....
7 ..ttt....t
8 ...tt...tt
9 ...t....tt
0 ....ttr.tt
1 r..tt....t
2 ..rtttt..r
3 ...rt...rr
4 r.r.......

Turn = 144.
  0123456789
0 r...rr...r
1 .......r..
2 ..........
3 ....trr...
4 ...tt.....
5 ...tt.....
6 ..ttt.....
7 ..ttt..rr.
8 ..ttt...tt
9 r..t....tt
0 ........tt
1 ....tr...t
2 ....ttt..r
3 ...trt..rr
4 ..rrr.r.r.

Turn = 156.
  0123456789
0 rr..r.....
1 ..........
2 rr........
3 rr.r..r..r
4 ...r...r..
5 r.r.....r.
6 ...rt....r
7 ..tttt....
8 ..tttt...t
9 ...tt....t
0 ........tt
1 ....tt...t
2 ....ttt..r
3 ...ttt..rr
4 ...tttt...

Turn = 168.
  0123456789
0 .r..rr.r..
1 ..r...rr.r
2 ......rr.r
3 .......r.r
4 ..........
5 ..........
6 ......r...
7 r.tttrr...
8 ...ttr....
9 .r.tt.r..t
0 r.......tt
1 ....tt...t
2 ....ttt..r
3 ...ttt..rr
4 r..tttt...

Turn = 180.
  0123456789
0 r.......rr
1 r.........
2 .r.r.....r
3 ......r.rr
4 ..........
5 .........r
6 r..t..t...
7 ..ttttt...
8 .r.ttt....
9 .r..t..r.t
0 ....t...tt
1 ....ttt..t
2 ....ttt..r
3 ...ttt..rr
4 ..ttttt...

Turn = 192.
  0123456789
0 .....r.r..
1 .....r....
2 ..........
3 ..........
4 ..........
5 ..r...t...
6 ...t..t..r
7 ..ttttt.rr
8 r..ttt...r
9 ....t...rr
0 r...t...rr
1 ....ttt..t
2 r...ttt..r
3 .r.ttt..rr
4 ..rrtttt..

Turn = 204.
  0123456789
0 ...r.r..r.
1 .r........
2 ........r.
3 ..........
4 .........r
5 ......t...
6 r.tt..tt..
7 ..tttttt.r
8 r..ttt....
9 ....ttt...
0 ....t.tt..
1 ....tttt..
2 ...rtttt..
3 ..ttttt...
4 ...ttttt..

Turn = 216.
  0123456789
0 rr........
1 r.........
2 ..........
3 .r........
4 ..........
5 .rr...t...
6 ..rr.ttt..
7 ..tttttt..
8 ...ttt....
9 ....ttt...
0 ....t.tt..
1 ....tttt..
2 ...rtttt..
3 ..ttttt...
4 ...ttttrrr

Turn = 228.
  0123456789
0 ...r......
1 ........r.
2 ..........
3 ..........
4 r.........
5 ......t...
6 rr..tttt..
7 ....tttt..
8 ....tt....
9 ....ttt...
0 r...t.tt..
1 ....tttt..
2 r.rrttttt.
3 .tttttt...
4 .r.tttttt.

Turn = 240.
  0123456789
0 ....r.....
1 ..........
2 ..........
3 ..........
4 ..........
5 ......t...
6 ....tttt..
7 ....tttt..
8 ....tt....
9 ....ttt...
0 r...t.tt..
1 r...tttt.r
2 .tttttttt.
3 r.ttttt...
4 rrttttttt.

Turn = 252.
  0123456789
0 r...r.....
1 r.........
2 r.........
3 r.........
4 ..........
5 ......t...
6 ....tttt..
7 ....tttt..
8 ....tt....
9 ....ttt...
0 ....t.tt..
1 ....tttt..
2 .tttttttt.
3 ..ttttt...
4 .ttttttttt

Turn = 264.
  0123456789
0 .........r
1 ..........
2 ..........
3 r.........
4 ..........
5 ......t..r
6 ....tttt..
7 ....tttt..
8 ....tt....
9 rr..ttt...
0 ....t.tt..
1 ....tttt..
2 .tttttttt.
3 ..ttttt...
4 .ttttttttt

Turn = 276.
  0123456789
0 ..........
1 r.........
2 ..........
3 ..........
4 ..r.......
5 ......t...
6 ....tttt..
7 ....tttt..
8 ....tt....
9 ....ttt...
0 ...t.rtt..
1 ...ttttt..
2 ...ttttttt
3 .tttttt...
4 rttttttttt

Turn = 288.
  0123456789
0 .........r
1 ..........
2 ..........
3 ..........
4 ..........
5 ......t...
6 ....tttt..
7 ....tttt..
8 ....tt....
9 ....ttt...
0 ...t.ttt..
1 ...ttttt..
2 ...ttttttt
3 ttttttt...
4 tttttttttt

Turn = 300.
  0123456789
0 r.........
1 ..........
2 ..........
3 ..........
4 ..........
5 ......t...
6 ....tttt..
7 ....tttt..
8 ....tt....
9 ....ttt...
0 ...t.ttt..
1 ...ttttt..
2 ...ttttttt
3 ttttttt...
4 tttttttttt

Turn = 312.
  0123456789
0 ..........
1 ..........
2 ..........
3 ..........
4 ..........
5 ......t...
6 ....tttt..
7 ....tttt..
8 ....tt....
9 ....ttt...
0 ...t.ttt..
1 ...ttttt..
2 r..ttttttt
3 ttttttt...
4 tttttttttt

Turn = 324.
  0123456789
0 ..........
1 ..........
2 ..........
3 ..........
4 ..........
5 ......t...
6 ....tttt..
7 r...tttt..
8 ....tt....
9 ....ttt...
0 ...t.ttt..
1 ...ttttt..
2 r.tttttttt
3 .tttttt...
4 .ttttttttt

Turn = 336.
  0123456789
0 r...r.....
1 ..........
2 ..........
3 ..........
4 ..........
5 ......t...
6 ....tttt..
7 ....tttt..
8 ....tt....
9 ....ttt...
0 ...t.ttt..
1 ...ttttt..
2 ..tttttttt
3 .tttttt...
4 .ttttttttt

Turn = 348.
  0123456789
0 ..........
1 ..........
2 ........rr
3 ..........
4 ..........
5 ......t...
6 ....tttt..
7 ....tttt..
8 ....tt....
9 ....ttt...
0 ...t.ttt..
1 ...ttttt..
2 ..tttttttt
3 .tttttt...
4 .ttttttttt

Turn = 360.
  0123456789
0 ..........
1 ..........
2 ..........
3 ..........
4 ..........
5 ......t...
6 ....ttttt.
7 ....tttt..
8 ....tt....
9 ....ttt...
0 ...t.ttt..
1 ...ttttt.r
2 ..tttttttt
3 .tttttt...
4 .ttttttttt

Turn = 372.
  0123456789
0 ..........
1 ..........
2 ..........
3 ..........
4 ..........
5 ......t...
6 ....ttttt.
7 ....tttt..
8 ....tt....
9 ....ttt...
0 ...t.ttt..
1 ...ttttt.t
2 ..tttttttt
3 .tttttt...
4 .ttttttttt

Turn = 384.
  0123456789
0 ..........
1 ..........
2 ..........
3 ..........
4 ..........
5 ......t...
6 ....ttttt.
7 ....tttt..
8 ....tt....
9 ....ttt...
0 ...t.ttt..
1 ...ttttt.t
2 ..tttttttt
3 .tttttt...
4 .ttttttttt

Turn = 396.
  0123456789
0 ..........
1 ..........
2 ..........
3 ..........
4 ..........
5 ......t...
6 ....ttttt.
7 ....tttt..
8 ....tt....
9 ....ttt...
0 ...t.ttt..
1 ...ttttt.t
2 ..tttttttt
3 .tttttt...
4 .ttttttttt

Turn = 408.
  0123456789
0 ..........
1 ..........
2 ..........
3 ..........
4 ..........
5 ......t...
6 ....ttttt.
7 ....tttt..
8 ....tt....
9 ....ttt...
0 ...t.ttt..
1 ...ttttt.t
2 ..tttttttt
3 .tttttt...
4 .ttttttttt

Turn = 420.
  0123456789
0 ..........
1 ..........
2 ..........
3 ..........
4 ..........
5 ......t...
6 ....ttttt.
7 ....tttt..
8 ....tt....
9 ....ttt...
0 ...t.ttt..
1 ...ttttt.t
2 ..tttttttt
3 .tttttt...
4 .ttttttttt

Turn = 432.
  0123456789
0 ..........
1 ..........
2 ..........
3 ..........
4 ..........
5 ......t...
6 ....ttttt.
7 ....tttt..
8 ....tt....
9 ....ttt...
0 ...t.ttt..
1 ...ttttt.t
2 ..tttttttt
3 .tttttt...
4 .ttttttttt

Turn = 444.
  0123456789
0 ..........
1 ..........
2 ..........
3 ..........
4 ..........
5 ......t...
6 ....ttttt.
7 ....tttt..
8 ....tt....
9 ....ttt...
0 ...t.ttt..
1 ...ttttt.t
2 ..tttttttt
3 .tttttt...
4 .ttttttttt

Turn = 456.
  0123456789
0 ..........
1 ..........
2 ..........
3 ..........
4 ..........
5 ......t...
6 ....ttttt.
7 ....tttt..
8 ....tt....
9 ....ttt...
0 ...t.ttt..
1 ...ttttt.t
2 ..tttttttt
3 .tttttt...
4 .ttttttttt

Turn = 468.
  0123456789
0 ..........
1 ..........
2 ..........
3 ..........
4 ..........
5 ......t...
6 ....ttttt.
7 ....tttt..
8 ....tt....
9 ....ttt...
0 ...t.ttt..
1 ...ttttt.t
2 ..tttttttt
3 .tttttt...
4 .ttttttttt

Turn = 480.
  0123456789
0 ..........
1 ..........
2 ..........
3 ..........
4 ..........
5 ......t...
6 ....ttttt.
7 ....tttt..
8 ....tt....
9 ....ttt...
0 ...t.ttt..
1 ...ttttt.t
2 ..tttttttt
3 .tttttt...
4 .ttttttttt

Turn = 492.
  0123456789
0 ..........
1 ..........
2 ..........
3 ..........
4 ..........
5 ......t...
6 ....ttttt.
7 ....tttt..
8 ....tt....
9 ....ttt...
0 ...t.ttt..
1 ...ttttt.t
2 ..tttttttt
3 .tttttt...
4 .ttttttttt

Turn = 504.
  0123456789
0 ..........
1 ..........
2 ..........
3 ..........
4 ..........
5 ......t...
6 ....ttttt.
7 ....tttt..
8 ....tt....
9 ....ttt...
0 ...t.ttt..
1 ...ttttt.t
2 ..tttttttt
3 .tttttt...
4 .ttttttttt

Turn = 516.
  0123456789
0 ..........
1 ..........
2 ..........
3 ..........
4 ..........
5 ......t...
6 ....ttttt.
7 ....tttt..
8 ....tt....
9 ....ttt...
0 ...t.ttt..
1 ...ttttt.t
2 ..tttttttt
3 .tttttt...
4 .ttttttttt

Turn = 528.
  0123456789
0 ..........
1 ..........
2 ..........
3 ..........
4 ..........
5 ......t...
6 ....ttttt.
7 ....tttt..
8 ....tt....
9 ....ttt...
0 ...t.ttt..
1 ...ttttt.t
2 ..tttttttt
3 .tttttt...
4 .ttttttttt

Turn = 540.
  0123456789
0 ..........
1 ..........
2 ..........
3 ..........
4 ..........
5 ......t...
6 ....ttttt.
7 ....tttt..
8 ....tt....
9 ....ttt...
0 ...t.ttt..
1 ...ttttt.t
2 ..tttttttt
3 .tttttt...
4 .ttttttttt

Turn = 552.
  0123456789
0 ..........
1 ..........
2 ..........
3 ..........
4 ..........
5 ......t...
6 ....ttttt.
7 ....tttt..
8 ....tt....
9 ....ttt...
0 ...t.ttt..
1 ...ttttt.t
2 ..tttttttt
3 .tttttt...
4 .ttttttttt

Turn = 564.
  0123456789
0 ..........
1 ..........
2 ..........
3 ..........
4 ..........
5 ......t...
6 ....ttttt.
7 ....tttt..
8 ....tt....
9 ....ttt...
0 ...t.ttt..
1 ...ttttt.t
2 ..tttttttt
3 .tttttt...
4 .ttttttttt

Turn = 576.
  0123456789
0 ..........
1 ..........
2 ..........
3 ..........
4 ..........
5 ......t...
6 ....ttttt.
7 ....tttt..
8 ....tt....
9 ....ttt...
0 ...t.ttt..
1 ...ttttt.t
2 ..tttttttt
3 .tttttt...
4 .ttttttttt

Turn = 588.
  0123456789
0 ..........
1 ..........
2 ..........
3 ..........
4 ..........
5 ......t...
6 ....ttttt.
7 ....tttt..
8 ....tt....
9 ....ttt...
0 ...t.ttt..
1 ...ttttt.t
2 ..tttttttt
3 .tttttt...
4 .ttttttttt

Turn = 600.
  0123456789
0 ..........
1 ..........
2 ..........
3 ..........
4 ..........
5 ......t...
6 ....ttttt.
7 ....tttt..
8 ....tt....
9 ....ttt...
0 ...t.ttt..
1 ...ttttt.t
2 ..tttttttt
3 .tttttt...
4 .ttttttttt

Turn = 612.
  0123456789
0 ..........
1 ..........
2 ..........
3 ..........
4 ..........
5 ......t...
6 ....ttttt.
7 ....tttt..
8 ....tt....
9 ....ttt...
0 ...t.ttt..
1 ...ttttt.t
2 ..tttttttt
3 .tttttt...
4 .ttttttttt

Turn = 624.
  0123456789
0 ..........
1 ..........
2 ..........
3 ..........
4 ..........
5 ......t...
6 ....ttttt.
7 ....tttt..
8 ....tt....
9 ....ttt...
0 ...t.ttt..
1 ...ttttt.t
2 ..tttttttt
3 .tttttt...
4 .ttttttttt

Turn = 636.
  0123456789
0 ..........
1 ..........
2 ..........
3 ..........
4 ..........
5 ......t...
6 ....ttttt.
7 ....tttt..
8 ....tt....
9 ....ttt...
0 ...t.ttt..
1 ...ttttt.t
2 ..tttttttt
3 .tttttt...
4 .ttttttttt

Turn = 648.
  0123456789
0 ..........
1 ..........
2 ..........
3 ..........
4 ..........
5 ......t...
6 ....ttttt.
7 ....tttt..
8 ....tt....
9 ....ttt...
0 ...t.ttt..
1 ...ttttt.t
2 ..tttttttt
3 .tttttt...
4 .ttttttttt

Turn = 660.
  0123456789
0 ..........
1 ..........
2 ..........
3 ..........
4 ..........
5 ......t...
6 ....ttttt.
7 ....tttt..
8 ....tt....
9 ....ttt...
0 ...t.ttt..
1 ...ttttt.t
2 ..tttttttt
3 .tttttt...
4 .ttttttttt

Turn = 672.
  0123456789
0 ..........
1 ..........
2 ..........
3 ..........
4 ..........
5 ......t...
6 ....ttttt.
7 ....tttt..
8 ....tt....
9 ....ttt...
0 ...t.ttt..
1 ...ttttt.t
2 ..tttttttt
3 .tttttt...
4 .ttttttttt

Turn = 684.
  0123456789
0 ..........
1 ..........
2 ..........
3 ..........
4 ..........
5 ......t...
6 ....ttttt.
7 ....tttt..
8 ....tt....
9 ....ttt...
0 ...t.ttt..
1 ...ttttt.t
2 ..tttttttt
3 .tttttt...
4 .ttttttttt

Turn = 696.
  0123456789
0 ..........
1 ..........
2 ..........
3 ..........
4 ..........
5 ......t...
6 ....ttttt.
7 ....tttt..
8 ....tt....
9 ....ttt...
0 ...t.ttt..
1 ...ttttt.t
2 ..tttttttt
3 .tttttt...
4 .ttttttttt

Turn = 708.
  0123456789
0 ..........
1 ..........
2 ..........
3 ..........
4 ..........
5 ......t...
6 ....ttttt.
7 ....tttt..
8 ....tt....
9 ....ttt...
0 ...t.ttt..
1 ...ttttt.t
2 ..tttttttt
3 .tttttt...
4 .ttttttttt

Turn = 720.
  0123456789
0 ..........
1 ..........
2 ..........
3 ..........
4 ..........
5 ......t...
6 ....ttttt.
7 ....tttt..
8 ....tt....
9 ....ttt...
0 ...t.ttt..
1 ...ttttt.t
2 ..tttttttt
3 .tttttt...
4 .ttttttttt

Turn = 732.
  0123456789
0 ..........
1 ..........
2 ..........
3 ..........
4 ..........
5 ......t...
6 ....ttttt.
7 ....tttt..
8 ....tt....
9 ....ttt...
0 ...t.ttt..
1 ...ttttt.t
2 ..tttttttt
3 .tttttt...
4 .ttttttttt

Turn = 744.
  0123456789
0 ..........
1 ..........
2 ..........
3 ..........
4 ..........
5 ......t...
6 ....ttttt.
7 ....tttt..
8 ....tt....
9 ....ttt...
0 ...t.ttt..
1 ...ttttt.t
2 ..tttttttt
3 .tttttt...
4 .ttttttttt

Turn = 756.
  0123456789
0 ..........
1 ..........
2 ..........
3 ..........
4 ..........
5 ......t...
6 ....ttttt.
7 ....tttt..
8 ....tt....
9 ....ttt...
0 ...t.ttt..
1 ...ttttt.t
2 ..tttttttt
3 .tttttt...
4 .ttttttttt

Turn = 768.
  0123456789
0 ..........
1 ..........
2 ..........
3 ..........
4 ..........
5 ......t...
6 ....ttttt.
7 ....tttt..
8 ....tt....
9 ....ttt...
0 ...t.ttt..
1 ...ttttt.t
2 ..tttttttt
3 .tttttt...
4 .ttttttttt

*** Darwin 10x20 ***
Turn = 0.
  01234567890123456789
0 .....h...tfhft..r...
1 ...t.hhhfr....r...fr
2 .........t.t........
3 .t.t.f.........rr...
4 .f.......r.h......h.
5 ....t.tr.....fr..f.t
6 ....h.h...rt..hh...r
7 t.............t...rh
8 r.r..r....t..rh.f.ff
9 ..f.tf...f..t.r.tf.t

Turn = 136.
  01234567890123456789
0 r...r.r.r.r.r.rr....
1 ...r......r..r.....r
2 r.r.....r.r....r...r
3 ..r....rr.r.....r...
4 r..rrr....r......r.r
5 r...r..rr.rrr.......
6 ..rr.r...rrr..r....r
7 ...rrr..r...r.....r.
8 ....r...rr..r..rr.rr
9 .........rrr....r...

Turn = 272.
  01234567890123456789
0 r.rr....rr...r.r....
1 rrr....r.rr..rr.....
2 .r.....r.r......r...
3 ....rrr.............
4 .rrrr......r..r.....
5 r..rr...rrrr..r.....
6 rrr....r...r..r....r
7 .rrr....r.r....r....
8 rrr.r..rrr......r...
9 .rr......rr.......rr

Turn = 408.
  01234567890123456789
0 r.rr...r...rr...r.r.
1 .r..r.....r........r
2 ....rrr....rr....r..
3 ........rr...rr.....
4 rr...r......rrr.....
5 r.r....r.....r......
6 r.r.r.r.r.rr.r...r..
7 rrr..r......rr.....r
8 rrr.r.....r........r
9 rrrr..r..r..r..r...r

*** Darwin 13x11 ***
Turn = 0.
  01234567890
0 .t...r.t..f
1 ....r.....t
2 tt.h.t..r..
3 h.ttrtr.hh.
4 rh.f.t.r.ff
5 ..f..hfff..
6 ...r..f....
7 f......h..f
8 rh..tt.f..t
9 h.t.t.fh.ff
0 tth.h....rf
1 ......tt..t
2 .rtfhh.ff.f

Turn = 122.
  01234567890
0 rrrr....rrr
1 rrr..r...rr
2 rrr.r...rrr
3 rr.r....r.r
4 rr.r.....r.
5 rrr........
6 rrrr..rr...
7 rrr.r......
8 rr.r...r.r.
9 r..r...rr..
0 rr.rrr...r.
1 r..r.r.....
2 r.r.rrr...r

Turn = 244.
  01234567890
0 rrr.rrr..rr
1 rrr...r..r.
2 rrrr.rr....
3 rrrr......r
4 rr.r.....r.
5 r......rr.r
6 .r........r
7 rrrrrrr.r.r
8 r...rrr....
9 ..r.r.r....
0 .rr......r.
1 rr.rr.rr..r
2 r.rr...rr.r

Turn = 366.
  01234567890
0 rrrr....rrr
1 rrr..rr..r.
2 .r..r...r..
3 .rrrr.r....
4 .rrr..rrrr.
5 .rrr...rr.r
6 rrrrr.r.r..
7 .r..r......
8 r...rr..rrr
9 ..r..r.....
0 .r......r..
1 rrr.......r
2 rrrrrrr.rr.

Turn = 488.
  01234567890
0 r....r..rr.
1 rrr..rr.r..
2 .rr..rr.r.r
3 rr.r.....rr
4 rrrrr.....r
5 rrrrrrr...r
6 rrr........
7 ...rrr..r..
8 r.rrrrr..r.
9 .r.......r.
0 .r.r....r..
1 r.rr.r...r.
2 .rr.r.rr.rr

Turn = 610.
  01234567890
0 rrr.rr.r..r
1 rr..r....rr
2 rrr.rrr...r
3 rrrrrr..rr.
4 .r.rr..r...
5 ....r...rr.
6 r.......r..
7 .r.r.r..rr.
8 rr...rr...r
9 r.r.r..r.r.
0 r...r.....r
1 rr...r.r.r.
2 r.r..rr.rrr

*** Darwin 17x13 ***
Turn = 0.
  0123456789012
0 ...hh....t..f
1 h......t.h...
2 ...frtft...t.
3 .th....httf..
4 h...h..r.....
5 ...f.........
6 rrh.t..r.....
7 ...f.hrt.r...
8 ..r.r........
9 .r....h.f....
0 t.h..h....t.h
1 .......h.....
2 ...h.r..r..f.
3 .rh...f.th...
4 f...h.f....r.
5 t...r....ff..
6 ............r

Turn = 81.
  0123456789012
0 rr.r.rrrrr...
1 .r.rr..r....r
2 r.r.r........
3 rr.r.r......r
4 rr..rrr.r....
5 .r..rr.......
6 r.....r......
7 .r....r......
8 r.rr.........
9 ..r.r......rr
0 .r..rr.......
1 r.r.........r
2 r..........rr
3 .........rr..
4 ..r....r..r.r
5 ..r.......rrr
6 ...r..r......

*** Darwin 10x19 ***
Turn = 0.
  0123456789012345678
0 .ht.h.tr......trtf.
1 h...h..fff..t.h...h
2 .h.hf...fr....t.f..
3 r.fr..rr.fftf.r...f
4 rh.tfrr.frh.r.tt.r.
5 fr..hf.tf....tr...h
6 t....f.rtftththhhfh
7 ..f.t...t.htrfhf..f
8 .r.....f.rhhf.hf...
9 ....t...rf.r..h....

Turn = 59.
  0123456789012345678
0 .rr..rrr.rrr.rrrttt
1 .rrrr.....rrr.rtttt
2 rr.rrr...r.r.....tt
3 rrr..r.rr......r..t
4 rrrr.r..rr..r...r..
5 rrrr.r.r...r..r...r
6 rrrr.r.....rr......
7 rrrr.rr......r..rrr
8 rr.rr..rr.....r...r
9 rr...r...rr..r..rr.

Turn = 118.
  0123456789012345678
0 rrrrr.r.r...r.rtrtt
1 rr.rrrrrrr...rrr.tt
2 rrrrr......r.rrr..t
3 rrrrrrr.r.....r...t
4 rrrr..r....r.rr..rt
5 ..rr.r.......r.rrtt
6 rrr.rr...r.....tttt
7 r.r....r........rtt
8 ..rr........r..r...
9 .rrrrrrr.........rr

Turn = 177.
  0123456789012345678
0 rrrrr.r.rrr.rrr..r.
1 rrrrrrr.rr.r.rr...r
2 r.rrrrrrr...r.r..rr
3 ..rrr...rr.rr..r.rr
4 rr..rrr.r.rr.r.....
5 rr..rrr.rr.rr.....r
6 ...rrr...rr......r.
7 .rr...r.rr.r.......
8 rrr....r....rr.....
9 rr...r.rr....rrr..r

Turn = 236.
  0123456789012345678
0 rr.rrrrr.r..r...r.r
1 rrr.rrrr..rr.....rr
2 rr.rrrrr.rr......rr
3 rrrrr.rrrrr........
4 rrrr..rrrrr...r..r.
5 rr..rr......r.....r
6 rrrrrr.....r....r..
7 rrrr.r.rr....r.....
8 r.r..rrrr..r......r
9 r.rrrr..r..rrr...r.

Turn = 295.
  0123456789012345678
0 ..rr.rrr.rr.rrrr.r.
1 r...rr.r.rrrr.r....
2 ..rrrr..rrrrrr.....
3 ...r.rr.r.rr.......
4 ...rrrr..rr.r......
5 rr.r..rrrrr..r....r
6 r...rrrrr.......r.r
7 ..rr.rrr.r....r.r.r
8 r.rr..rrrrr..r...rr
9 rrrr..rr...r.rrr.rr

*** Darwin 10x17 ***
Turn = 0.
  01234567890123456
0 t.rf...ttrr......
1 .ftrr....fttffr..
2 ..r......f.f.f...
3 hf....f........h.
4 t.......fr.tr.h.r
5 ..h.h...hthh.f.h.
6 f.frh...f.rrrt...
7 ..rt.r...rr..h...
8 htrhf..ht..th....
9 ......rr....f...h

Turn = 40.
  01234567890123456
0 ...rrrrr..r.rr...
1 r.r..r..rr.rr...r
2 rr.r...r......r..
3 rr....rr.......rr
4 r.rrrrr..r..r..r.
5 .r.rrr.....r..rr.
6 .rrr.r..rr....r..
7 r.r..r.r.r.r...r.
8 .r...rr.r......rr
9 .r.rr..r........r

Turn = 80.
  01234567890123456
0 rr.r.....r.....rr
1 r.rrr..r......rr.
2 rr...r....rr.....
3 rrr.........r...r
4 rrrrr.....r.r.r..
5 r..r....rr...r...
6 r.r.r...r...r.r..
7 rr.r....r.r..r..r
8 rrrr.......r..r.r
9 .rr.rrrrrrr...rrr

Turn = 120.
  01234567890123456
0 .rrrrr.r...r..r..
1 rrrrrr.r...r.....
2 rr.rr.r.........r
3 ......rr.........
4 .r...rrr.......r.
5 .r.rr.r.r.....rr.
6 ..r..rr..r.....r.
7 r..r..r.rrrr.....
8 rr..r.rr..r.r..rr
9 rrrr...r.rr..rrrr

Turn = 160.
  01234567890123456
0 rrrrr..rrr.r..r..
1 ..r..r..rrr.r.r..
2 r..r..rrrrr......
3 .r..r............
4 rr.r..rr..r.rr...
5 rr..rrr..r...r..r
6 r...rr..rr...r...
7 r.........r..r...
8 r.......rrrrr..rr
9 rr..rrrr.rr.....r

Turn = 200.
  01234567890123456
0 rrrrr.r..rrrr.r..
1 r.rr.rr..........
2 rr..rr..rr.....rr
3 rrrrrr.r.r.......
4 rrrr............r
5 rr.rr..r.........
6 rrr.rr.rrr......r
7 rrrr.r.......r...
8 rrr.........r...r
9 rr...r..r..r....r

Turn = 240.
  01234567890123456
0 rrr.r...r.r.rr...
1 r.rr......r...r.r
2 rr.r.rr......r...
3 .rr..rr........r.
4 rrr.r..r.r.rr...r
5 .r.rr..rrr..rr.rr
6 r...rrrrr........
7 r.r..r.rr........
8 rrr....rr.r....r.
9 r.....r.r..r..r.r

Turn = 280.
  01234567890123456
0 ...rr.rrrr.rr.r..
1 .......r.rr......
2 ..r..rr..........
3 ..r.r...r...r....
4 r.r....r..r....rr
5 rr..r.....rr.r.r.
6 rr..rr...rrr.r...
7 .rrr.r..rr..r...r
8 rr..r.rrr.....rr.
9 rrrrr.rrr.r..r.rr

Turn = 320.
  01234567890123456
0 r.r.rr..r...rrr..
1 rr.rrr.rr....r...
2 r.r...rr.r...r...
3 .rrr.r..r...r..r.
4 r.rr...r.rr......
5 r..rr.r.rr..r...r
6 rr...r.r.........
7 rrrrr.r.r......rr
8 ....r.rr.r.r.....
9 rr..r..r..r....rr

Turn = 360.
  01234567890123456
0 rrrr...rrrrr...rr
1 rrrrr..rr......rr
2 rr...rrr....rrr.r
3 rr.r...r....r..r.
4 rrrr.........r...
5 rrr.....r.......r
6 .r......r......r.
7 rr.r.r.r.r...r...
8 rr.rrr.rrr.r.....
9 .r...r.rr........

Turn = 400.
  01234567890123456
0 rrrr...r.r.r.....
1 rr..rr...........
2 rrrr..r..rr..r...
3 rrr.r..r.rr.....r
4 rrr..............
5 r.r......r..r....
6 rr.rrr..rr..r....
7 .rrrrrr.....r....
8 rrrrrr.......rr.r
9 rrrrr.r..r..r.rr.

Turn = 440.
  01234567890123456
0 rrrrr.rr.rrr..r..
1 rrr.r.r.r..rr...r
2 rrr.r.....rr.....
3 ..r..r.....r.r...
4 r.rr.r...r.r.....
5 r.r...rr..rrrrrr.
6 rr.r..r...r...rrr
7 r....rr..........
8 r..r....r.......r
9 ..r.rr.r.r.r...r.

Turn = 480.
  01234567890123456
0 .rr...r.rr.r....r
1 rrrr.....r.......
2 rrr.r.r..rr......
3 rr.....r.........
4 r...r..rr..r..r..
5 rr.rrrrrr.....r..
6 rr.rrrr.rrr..r...
7 rrrrrr......r....
8 rr..rr..r..r.....
9 rr..r..rr.rr....r

Turn = 520.
  01234567890123456
0 rrrrr.rr.rrr...rr
1 rrrr...rr..r...rr
2 rrr.r.r.........r
3 rrrrr..r.......r.
4 r.r........r.r..r
5 rrr.....r...rr..r
6 .rrr.............
7 rrrr..r..rr.....r
8 r.rr...rr........
9 rrr.r.r....r.....

Turn = 560.
  01234567890123456
0 rrr.......rrr..rr
1 r..rr.....r..r...
2 rrr.rr..r.rr.....
3 ...r..r...r......
4 r.r.r..r..rr.r...
5 .rrr.r....r.rr...
6 r..r.rrrr....rrr.
7 rr.r.rr..r.r..r.r
8 r..rr.....r.r...r
9 r..r..rr...r....r

Turn = 600.
  01234567890123456
0 r..rrr.r..r.rr.r.
1 r.rrr...........r
2 ....r.....r....r.
3 rrr....r.......r.
4 rr............r..
5 rr.r..r.......r.r
6 .rrrr..rrr...r.r.
7 rrrr....r..rrr.r.
8 rrrr...r.r..rr..r
9 r.rrrr.r..r..rr.r

Turn = 640.
  01234567890123456
0 r.rrrrrrrrr.rrr..
1 .rrrr.r.rrr......
2 r.r.rrr....r.....
3 r..r.rrrr....r..r
4 rr.rr...r......r.
5 .rr..r....rr...r.
6 .r.r........r...r
7 r..r.........r...
8 rr..rr...........
9 rr..rrrrr...rrr..

Turn = 680.
  01234567890123456
0 rrr..rrr.rr.....r
1 rrrr.r...r.......
2 rrrrrr....r.r..r.
3 rrrr..rr.....rr..
4 .rrrr........rr..
5 ..rrr..r....r....
6 r..rrr.r.........
7 r.r.rrr......r...
8 rr.....rr.......r
9 .r.rrrrr.r..r...r

Turn = 720.
  01234567890123456
0 rrrrr.r......rrrr
1 rrrrr.r....rrr..r
2 rr.rrr..rr.......
3 rrrr....r........
4 rrr.r......rr....
5 rr.r.........r...
6 rr.....rr.rrr...r
7 r.rrr...........r
8 r.r..rrr.rrrr....
9 .r...r..r....r...

*** Darwin 11x15 ***
Turn = 0.
  012345678901234
0 fr......hh...r.
1 r.h.......thr..
2 r.r..r.trfrhr.f
3 .rrtfhthhtt.ftt
4 ..fr.r...f....f
5 .rth..tf..t.r..
6 ...r.ht....h...
7 t...f..fft..ft.
8 ..h..r.r.....h.
9 frr..r..t.....r
0 .hrfh......t.tf

Turn = 96.
  012345678901234
0 r..r.rrr.r....r
1 ..r..rrrr......
2 r.r...rr....rr.
3 r.r..r.r....rtr
4 ..rrrr...r.tttr
5 ....r.r.r.r.ttr
6 rr.........r.rt
7 r....rr.rr.r.tr
8 r.r...r..r..r.r
9 rr.r.r.r.....r.
0 r.rr...r..rrr..

Turn = 192.
  012345678901234
0 rrrrrr..rrr....
1 rrr.rr..rr.....
2 rr.rrr.r.......
3 rr.rrrr.r.r....
4 rrr.rrrr...r...
5 r..rr.r.....rrr
6 rr.rrr.....rr..
7 ..r.r...r.....r
8 r..r........r..
9 rr...r...r...rr
0 .rrr.r..rr...rr

Turn = 288.
  012345678901234
0 rr..r........rr
1 .rrr....r....rr
2 rr.rrr..rr...r.
3 rrrr.r...rr...r
4 rrrr..........r
5 rr..rr.....r...
6 rrr.r....rr....
7 r.rrr...r.r.r..
8 rr..r..rr..r..r
9 rrr..rrr.....r.
0 rrrr.r..r..rrr.

Turn = 384.
  012345678901234
0 rrrr..r...rr.r.
1 .rrrr.r..r..rr.
2 rr.rr.rr.r.....
3 rrrrrrrr.r....r
4 rrrrrr.........
5 rrrr..r.......r
6 rrrr..r.rr.....
7 r.rrrrr.r......
8 ..rr.r..r.r..r.
9 ..rrr..r.....r.
0 rr........r....

Turn = 480.
  012345678901234
0 rr.r..rrrrrrrrr
1 r.rrrrrr..rrr..
2 rr.rr..r.r.....
3 rrr..r.r...r..r
4 rr.r.rr...r.r..
5 ....r.....rrr..
6 rrr.rr......r..
7 r.r...rr.......
8 rrrr.r..r....r.
9 r.r..........rr
0 .rr....rrr..r..

*** Darwin 12x17 ***
Turn = 0.
  01234567890123456
0 .h...h..r.r...t..
1 ftfrfr.f.rttf...h
2 ..f.t.r....rh.rf.
3 ....r..ttr...f...
4 ..ffh.r......frf.
5 hr.t..h......h...
6 t.tf..f.......tr.
7 t..r.hrr..r.t...f
8 ...t...r...ht..rh
9 .h....t.....r...h
0 f..rhhhr..tf....r
1 .....fh..h.t..r..

Turn = 129.
  01234567890123456
0 rrr...r...rrrr.r.
1 .....r.rr.rr.....
2 rr...r..r.r..r...
3 .r..rr..rrr.rrr..
4 r.r..r...rr...rr.
5 .r.r.r..r........
6 rr..rr.rr..r..r..
7 .r.r..rr.........
8 r...r.r...rr.....
9 r..r..r.r....r..r
0 rr.r...r.r.r.r..r
1 rrr.rr...rr.....r

Turn = 258.
  01234567890123456
0 rr.rrrrr.r..r..r.
1 rrrrrrr........r.
2 rrrrrrr.rr......r
3 r..rr............
4 .r.rrrrr.........
5 rrrrrr..r.r.....r
6 .rrrrr....r......
7 rrr..r.r.......r.
8 .rr...r.........r
9 rr..r......r.....
0 ..r.rr...rr.....r
1 .rr.r.rr..r....r.

Turn = 387.
  01234567890123456
0 rr.rrrr......r..r
1 rr..rrr...r.r....
2 r.rr.r.r...r....r
3 rrr.....r.....rrr
4 rrr.....rr.......
5 r.r.r.r..........
6 rrrrrr.r.....rr..
7 ..r....r....r...r
8 rrrr.r.....r...rr
9 rr.r..r.rr....r..
0 r......rrr.......
1 rr.r..rr.rr.rr...

Turn = 516.
  01234567890123456
0 rrrrrr....rr..rrr
1 .r..rr...r.....r.
2 rrr.rr...........
3 rr.rr.......rrr.r
4 r.rr.r.......r.rr
5 r.r.......rr..r.r
6 rrrrr.r.........r
7 r.rr...........r.
8 rr..r.r......r...
9 rrrrr........r...
0 .rr..r.r.rr.....r
1 rrrrr...r.rr.....

*** Darwin 15x19 ***
Turn = 0.
  0123456789012345678
0 r.....h.....h..h...
1 .....r.h..r.t......
2 .f....fr.r....t....
3 .t....tf.ft.....ht.
4 r................r.
5 .........tt......tr
6 ......hhh...t......
7 .f.hhht....t.t.....
8 ......h.......r.h..
9 f..r...r.......t.ft
0 t.rf............h..
1 .........t.fh....t.
2 ..................f
3 ....t...t.h.rt..h.f
4 rt.rr...ft..h...rh.

Turn = 193.
  0123456789012345678
0 ......r.rr.r.rrr.rr
1 r....r.r..r........
2 .r......rrr.r.r....
3 r.rr..............r
4 r.rr..........r....
5 rrr................
6 rrr...........r..r.
7 r............r....r
8 r.....rrr...ttt....
9 r.rr........tr..r..
0 ...r........r......
1 ..r.rrr...rrrr.....
2 r...........r....rr
3 .............r...r.
4 .........r.r.r....r

*** Darwin 15x18 ***
Turn = 0.
  012345678901234567
0 ..r.......r.f...tf
1 ...h....f.........
2 h...r......r..fhtr
3 .f.......r.fh.rtf.
4 .r.......f..r.....
5 .....r....f.......
6 .r.hrhtf....h.hh..
7 r.t........rtf....
8 t.t...t....h.f...r
9 rf.h....f.r.tr.t..
0 .fr.trt.t..trf....
1 .h.r...f.h.t......
2 ...hh......f.....r
3 ...t.t..rtr..h....
4 r.t.f..t..tr..fh.f

Turn = 77.
  012345678901234567
0 ..rr.rr........r..
1 ......rr..........
2 .rr..r............
3 .r..r..r..........
4 ....rrrr......r...
5 r...r.............
6 .r.rr.r.........r.
7 ....rr.......ttr.r
8 ......r.....tttt.r
9 rrr.......tttttttt
0 rr........rttttttt
1 r....r.r...ttttt..
2 ..rr...rr.....t.t.
3 .rrrr.r.r.....r..r
4 r.r..r..r..r....rr

Turn = 154.
  012345678901234567
0 .r...rrrr...r..r..
1 r..r.rrrr........r
2 rrrr.............r
3 ..r..r....r.r.....
4 r.r......rrr.r....
5 r......r.r...rr...
6 r.r.r.rr..........
7 rr.r.rr.........r.
8 r..r........r.rrr.
9 rrr.r...........r.
0 rr.r....r.........
1 rrr..............r
2 rrr....r.r.r.....r
3 rrr...........rr..
4 rr.rr.rrr.r.rr.r..

Turn = 231.
  012345678901234567
0 rr...r...r........
1 .r.rr.rr..r.......
2 .rr.r.rr.....r.r..
3 ............r.rrrr
4 r.r...r...r.r.....
5 rrrr..r...r..r.r..
6 ..r.r.r.....r....r
7 rr......r.r.......
8 r.r....rr........r
9 rr...rr.r..r......
0 ......rr....rr....
1 rr..r..r......r..r
2 .r..rr...r.r..r..r
3 r....rr...r..r.rrr
4 rrrr....r...r....r

Turn = 308.
  012345678901234567
0 rr.rr...r........r
1 rrrrrr..rr........
2 ...rrrrr.r........
3 .r...rr..rr.......
4 rrr..rr.r.....r.rr
5 ..r..rrr.....r.r..
6 .rr..r...r........
7 ..r......rr.......
8 ......r...........
9 r.......rr........
0 .....r............
1 r....rr.r...rr....
2 rr.rrrr...r.r....r
3 r......r..rrrr..r.
4 rr.rrrr.r.r.rrrr.r

Turn = 385.
  012345678901234567
0 r.rr.r.r.r...r...r
1 rrrr..rr.....r..rr
2 rr.....r..........
3 rrr.r.r.r...rr....
4 rr...rrrrr..r.....
5 r.r..rrr........rr
6 rr........r.r.....
7 ..r..r.rr.........
8 .r...rr..r..r....r
9 ..r.r....r........
0 r..r..............
1 ....rr.r..r......r
2 ...r..r...rr...r.r
3 ...r..rrr.........
4 rrr...rr.rrrr.r...

Turn = 462.
  012345678901234567
0 rrrrrrr.r.r....rrr
1 rrrr.r.r.....r...r
2 rrrr.........r....
3 rrrr.r............
4 rrrr..............
5 rrrr..............
6 r.rrr.............
7 rrrrr..........r.r
8 rr.....r........r.
9 ........r........r
0 r.r.....r.......rr
1 rrr..rr..r....r...
2 rr...rr.....r...r.
3 rrrr...r.........r
4 r.rrr..rr...r....r

Turn = 539.
  012345678901234567
0 r.rr.r....rr.rrr.r
1 rr..rr......r...r.
2 r..r....rr.......r
3 .rrr.r......r.....
4 rrrr.....r..r.r...
5 r.rr......r.rr...r
6 rrr.r...rrr.r...rr
7 .rr......rr....r..
8 .rr....r.r.r...r..
9 ..r...............
0 r.rr....r........r
1 rrr.............r.
2 rrr.r.r.r.........
3 rr.r.r..r.........
4 .rrrr...........r.

Turn = 616.
  012345678901234567
0 rrr...r.r....r.rr.
1 .....r....r.......
2 ...r.rr......r....
3 ..rrrr.....r.rr...
4 .r...r..r...r....r
5 r...r.............
6 ...rr..r.....r....
7 r...rrrr.r.rr.....
8 rr.rr.rr.r........
9 rrrrr.....r.......
0 rrr.....rrr.......
1 r..r.r....r....rr.
2 rr..r.r..r...r....
3 rrrr.......r..rr..
4 .rr..r..r...rrr.rr

Turn = 693.
  012345678901234567
0 rr.rrrrrrr.....r.r
1 rr.r.....r.....r..
2 .r.r.rr...........
3 .rr...r.r....r....
4 .rrr...r.......r..
5 rr.........r..r..r
6 r..........r......
7 rrr...r.rr........
8 r.rrrr..rr.......r
9 r..rrr.rr.r.r...rr
0 ...r...r....r.....
1 r.r.r.....r.......
2 r.r....r.........r
3 rrrr.r...r..r.....
4 ..rr..rr.rrr....r.

Turn = 770.
  012345678901234567
0 rr.r..r.r.........
1 .r.r.r.....r.r..rr
2 rr.rr.........r..r
3 rr.....r..r.......
4 rrr..r............
5 .rr..r....r.......
6 .r..r...rr.r......
7 rr....r..r.rr.....
8 rrr.......r.r....r
9 rrr.rrr.......r..r
0 rr.r..r.........r.
1 rr.....rr..rr...rr
2 r...rr..rr........
3 r....rr.r....r.r..
4 rr.rr......r.r.rr.

*** Darwin 15x12 ***
Turn = 0.
  012345678901
0 h.h...f..t.f
1 .rhft...ffhf
2 ht.ff.ht...r
3 h.tr....ftt.
4 t.hft..f....
5 .r.hhr.t..r.
6 .r..h..f..h.
7 r......f..rt
8 h.......r..t
9 r..frt.h.fh.
0 .hf..hff....
1 ....t..rff.h
2 .....f.h.f..
3 ft..r.t.h.f.
4 rff....h.h..

Turn = 119.
  012345678901
0 r.rrrr.rrrrr
1 rrr.r.r...rr
2 r.r..r......
3 rr.r......r.
4 r.rr.....r..
5 r.r...r..r..
6 r.r....r.r..
7 r.r....r.r..
8 .r..r..rr.rr
9 ....r...rrr.
0 .rrr....r..r
1 ..r.r.r..rrr
2 ..rr..r.rrrr
3 rrrr.r....r.
4 rr..r.....rr

Turn = 238.
  012345678901
0 .rrrr.....r.
1 r.rrr......r
2 .rrr.r....r.
3 r.rr..rr..rr
4 r.....rrrr.r
5 .rrrr...r.rr
6 .rrr.r......
7 r...r..rr...
8 .rrr.r....rr
9 rrr...r..r..
0 .r..r.......
1 rrrr...rrrr.
2 rr..rr...r..
3 ..rrrrr.rr..
4 .r....r.r...

Turn = 357.
  012345678901
0 .rrrr.r.r.r.
1 rrr...r....r
2 r....r.....r
3 r...r....r.r
4 rrr.........
5 .r.r...r...r
6 rrrrrr...rrr
7 rrr.r....rrr
8 rrr.rr.rr.r.
9 ..r..rr.....
0 ...rrr..r...
1 rrr.....r...
2 ......r.rr.r
3 r.rrrr.....r
4 rrrrr..rr..r

Turn = 476.
  012345678901
0 .rr.r..rrr.r
1 r.r..r.rrrrr
2 r.r.rr.rr...
3 rrrrrrrrr...
4 rrrrrr....rr
5 r.rrr.r.....
6 rrr.r.......
7 ......r..r..
8 ....r.......
9 ...r......r.
0 rrr.rr......
1 rr..rr......
2 rrrrr..r.r.r
3 rr.r.....r..
4 rr..r..r..rr

Turn = 595.
  012345678901
0 r.rr.rrrrr..
1 rr.rrr...r..
2 r.r.rr..rr.r
3 rr...r...rrr
4 rr...r.r.r.r
5 ..r......r..
6 .r.r.r....r.
7 rrrr.r.r....
8 ..rr.r...r..
9 ..rr.r.r....
0 .rr...r.r...
1 ...rr...r.rr
2 .rr.r....rr.
3 r.....rr.rrr
4 ..r.r..rr.rr

*** Darwin 12x19 ***
Turn = 0.
  0123456789012345678
0 t.hr.....hh.fr.frtr
1 rf.rt.r..rftt..tr..
2 .....ff.frtf....h.r
3 ....rh....rrt..fth.
4 rh...rh.h.....h....
5 .tf.r..t.rtt...ftff
6 .f.fr.tf.t.t..t.r..
7 h..ffh.rr.tr.r.tf.h
8 tr..fh..r.t.hf....f
9 r...h...tr...fr...t
0 rf..t..rt..f.f...ht
1 h.fhr.t.rtth......h

Turn = 137.
  0123456789012345678
0 rrrrrr..........rrr
1 rrr.r.........rr..r
2 rrrr.rr.r....r..rr.
3 rrrrrr..r........rr
4 rrr.rrr.rr.........
5 rrrrrrrrrr.........
6 rrrrrrr..r.r.rr....
7 rr.rrr.r...rr.....r
8 rr..r.r..rrrrr.rr..
9 r.rrrr.rrrr........
0 rrrrrr..rrr...rr..r
1 rr.......rr..r.r...

*** Darwin 15x18 ***
Turn = 0.
  012345678901234567
0 .r....tf..r....rh.
1 .r.tfhh......r....
2 .th.rr..rf.t.rt...
3 .r..r.ttf.fh.rfffr
4 t.fr.t...hf.f...r.
5 .tfh.t.....h...t..
6 ..t.f.t.ffh....ht.
7 .r.rr..ttr.h..f.h.
8 t..r.fr.f.....hfrh
9 .h.hr...h..rft..hh
0 rhh.ft.hrr..tthffh
1 .tht.rf..rf.tff.hf
2 ....r.tr..f....trt
3 .rhhrht..r.frf..t.
4 .fh....hft.h.t.r.h

Turn = 5.
  012345678901234567
0 ..rr..tf......t..r
1 ..r.ttr..r.r..t..r
2 .r...rrrrr....tr..
3 ...r.rrr.rfr..tr..
4 .tt..t....frf..r..
5 tttt.tr..t.r...rt.
6 ..t..r..tt.rhh..tt
7 trrrr.tttth.r.f.tt
8 r..rr..rfr..r.htt.
9 .rr.t......r.th.t.
0 .t.httt..rr..t.ttt
1 .ttt.t..r...tttttt
2 ...t.rr.r.....r.tt
3 ..r..hrr.r...t..t.
4 rrrr...httr.tt...h

Turn = 10.
  012345678901234567
0 ...r.rtrr.r.r.t...
1 ....tttr......tt.r
2 r.r.rttt.rr...tt.r
3 .....tt.......t...
4 .ttrtt..rtfrr.....
5 ttttt..rttr.rrr.t.
6 ttt....rtrr.r.r.tt
7 ..tt..t.tr...r.ttt
8 ...r..trrr..rr.tt.
9 rt.tt.r.....rrt.t.
0 .tt.trr......t.ttt
1 rttt.rr..r..tttttt
2 ...t.r..rr..tt..tt
3 r..t...rr....t..t.
4 ..r.r.rr.rr.tt...h

Turn = 15.
  012345678901234567
0 r.r..trrrrrr..t...
1 ...ttt.r.r...rttr.
2 .....ttr..r...rrr.
3 .....ttr.....rr...
4 rrttttr.rrr.r.....
5 ttttt...r.r...r.t.
6 rtt...r.t.rr..r.rt
7 .rttrr.ttr..r.rrrt
8 rr.....ttr....rrr.
9 .t.ttt.t..rrrrt.t.
0 .tt.tt...r.r.ttttt
1 .tttr.rr.....rtttt
2 r..t..r.r..ttt..tt
3 ...rrrr......t..t.
4 .....r.r....tt...h

Turn = 20.
  012345678901234567
0 rr...ttrr..r.tt...
1 r..ttt.rr..rrrrtr.
2 r....ttr..r...rrr.
3 .....ttrr....r....
4 r.trtttrr.........
5 .rtrttt.......r.rt
6 rrrtr.r..rrr.r..rt
7 rrrrr..trrr..r.r.t
8 r.....rtrrr.rrt..r
9 .tt.tt.rr..r.rt.tt
0 .tt.ttr....r.ttttt
1 .ttttr.......t.ttt
2 ...ttr.....rttt.tt
3 rr..........rt..t.
4 r.......r...tt...h

Turn = 25.
  012345678901234567
0 r...rtrr....rtt...
1 ..rtttrrr..rrtrtrr
2 .....rrr.r..r.rrr.
3 rr.r.ttrrr......r.
4 .rtttttt....r.r...
5 r.rrttt..r..r.....
6 r...r.rrr.rr.....t
7 rrr.tt.tt.rt....rt
8 ..r....ttttrr..r.t
9 .tt.tt.tt..r.tt.tt
0 rtt.ttrr....tttttt
1 rttttt.......t.ttt
2 r..ttt......ttt.tt
3 ............tt..t.
4 ...r.......rrt...h

Turn = 30.
  012345678901234567
0 r..rrtrr.rrr..rrr.
1 .rrrrrr...r.ttrrr.
2 rrrr...r..r..r.rr.
3 r.r.tttrrrr.rr.rr.
4 .r.rrttt.....r....
5 ...trrt.t........r
6 .r..rrttt........t
7 ....r..tt.tt.....t
8 rr...trtrttt....tt
9 t.r.tt.rr..rttt.tr
0 trr.ttt..r.rtttttr
1 tttttt.......t.ttr
2 ..tttt......ttt.tr
3 ............tt..t.
4 ........r...tt...h

Turn = 35.
  012345678901234567
0 rrrr.rr.rrr...r.rr
1 rrrr.r.r..rrrrr.rr
2 .r..rr..r...rr..r.
3 rrrtrttrtr......r.
4 .r..rrtttt.r.....r
5 r.r..tt.t........r
6 r.rr.rttt.....rr..
7 .....r.tt.tt.....t
8 r...rrttttrt....tt
9 tt..rr..t.rtttt.tr
0 tt.rr.t....t.ttttt
1 tttttt......rt.ttt
2 ..tttt......rtt.tt
3 ............rr..t.
4 .......r...rrr...h

Turn = 40.
  012345678901234567
0 r.rrr...r....r.rr.
1 rrrrr.rrr...rrr..r
2 rrr.rrrr.....r..rr
3 rr.rrrrrt....r.rr.
4 .rrr.rtrttt..r.r.r
5 .r.rr.r.t.........
6 .r.r.rrtt..r.r....
7 ..r...rtt.tt..r..t
8 rrr...tttttt...rtt
9 rr...r..t.ttttt.tt
0 tt..r.t....ttttttt
1 tttttt.....rrt.trt
2 ..tttt.r...r.ttrrt
3 .............t.r..
4 ...r.............h

Turn = 45.
  012345678901234567
0 .rrrr..r........rr
1 rrrrr..r.rr.r.rr.r
2 rrrrrrr..r.rr.r...
3 rrrrrr.r.rr.r..rr.
4 rrrrr.rr.rrrr.....
5 .rr..rrtt........r
6 r.....ttt.t...r..r
7 r.....rtt.tt.....r
8 r..r.rrttttt.r..tt
9 r.....r.t.tttttttt
0 ..r.r.t....ttttttt
1 rtrtttr....ttt.ttt
2 ..tttt.......ttttt
3 r............t.t..
4 r.....r..........h

Turn = 50.
  012345678901234567
0 rrrr..rrrrrr...r.r
1 rrr.rrr.rr.rr.r.r.
2 rrrr.r..rrr..r....
3 rrr..rr.r........r
4 r...r.r.......r...
5 r.r.rr.trtt......r
6 rrrrrr.tr.tt.r...r
7 ..rr..r...tt...r.r
8 r.....rttttt.tt.tr
9 r...r.ttt.tttttttr
0 .r..trt....ttttttt
1 r.ttttt....ttt.ttt
2 rrtttt.......ttttt
3 .............t.t..
4 .....r....r......h

Turn = 55.
  012345678901234567
0 rrrr...rrr.r.r...r
1 rrrrr..r..rrr.r...
2 rrrrr...rr........
3 r..rr.rrr...r.r...
4 .rrrrr.rrr........
5 rrrr..rrttt.....r.
6 r.r...rrt.tt....rr
7 rr.rr.....tt..rr.t
8 .r....rttttt.ttttt
9 .....tttt.tttttttt
0 .rrr.r.....ttttttt
1 .rrrrr...r.ttt.ttt
2 r...rrr......ttttt
3 ...r.........t.t..
4 rr........r....r.h

Turn = 60.
  012345678901234567
0 rrrrrrrrrrr.......
1 rr...rr..r........
2 r.r....r.r.....r..
3 rr.rrrrrr.r.......
4 rrr..r..tttr.....r
5 rr.....rtt.r......
6 rr.r...tt.tttrrr..
7 r..rr.....tt..rrrr
8 r.rr.rttttttrtrtrr
9 r.rr.rt.t.tttrtrrt
0 ....rr.r...rrttttt
1 r....t.....ttt.ttt
2 .............ttttt
3 .rrrr.....r..t.ttt
4 rrrrr.r.r......r..

*** Darwin 18x18 ***
Turn = 0.
  012345678901234567
0 ft.h..rrh.h.rr..r.
1 ...f..h.f.rtf.tft.
2 ..tt....f...t...r.
3 ..t..r...rh..r....
4 ....frhh.......tf.
5 .....r.r.r.r.h...h
6 ..f..hfhhhtf...r..
7 ....h.t....h...tr.
8 ..h..trh.......rh.
9 ..th..h...t.t.h...
0 ......ffh........r
1 t.t...r...r.t.rf.f
2 ..t.h...t.t...hh..
3 t.....h.r.rtt..hr.
4 t.....t....tftrt.f
5 ...t...rr..r......
6 ...rf...h.f...t.f.
7 r..hfr..ttr.t..f..

Turn = 95.
  012345678901234567
0 rr.r...r.......rrr
1 rrrrr..rrrr..r...r
2 rrrr...r.......r..
3 rr.rrr............
4 ....r.rr.rrrr.....
5 rr.....r.rr.rrr...
6 ..rr.....r...r....
7 ...rr.rr......r..r
8 .r.rr.......r...r.
9 ....r.r..r.r.rr...
0 ..r.......r.......
1 r..r.r.....rr.....
2 r..rr...rrrr.r....
3 r....r...r....r...
4 r......r.rrrrrr...
5 .rr......rrrrr.r..
6 rrr.r.r..r.r..r...
7 rr.rrrr...r.rrrrr.

Turn = 190.
  012345678901234567
0 .rrr.rrrr..rrrr.rr
1 rr.r.r.....rrrr...
2 rr..r....r.....r..
3 ..rr.rrr.r.....r..
4 r..r..r.rr.......r
5 .....r.r....r...rr
6 ..rrr.r.r.rr.r...r
7 ..rr.r....r.....r.
8 .rr..r.rr.r....r.r
9 .r.rrr..r.........
0 r..rr.r.r.rr.....r
1 rr.rrr....r.rr....
2 rrrr..rr.........r
3 .r..r.rr..........
4 ....rr.r...r......
5 rr..rr..r.........
6 rr.....rr.....r...
7 r.....r.rr.r...rrr

Turn = 285.
  012345678901234567
0 rrrr..r.rr..rrr...
1 rr.r.rrr.r.rrrr..r
2 rrrr....rrr....r.r
3 rrr..r.r.r.......r
4 r.rr.r.rrrr.r....r
5 r...r..rrr.r....r.
6 rr...r.....r......
7 .r.rr.............
8 .rr.r.r.r.......r.
9 rr...r..r...rr....
0 r....r.........rr.
1 ......rr.r....rr.r
2 r.r.r.......r.r...
3 ..rrr..r........rr
4 rr.r.r..r.....r.rr
5 .......r..r...rr..
6 r.r..r.rr...r.....
7 rrr..r.....rrr....

Turn = 380.
  012345678901234567
0 ..r..rrrr.r.rrr..r
1 rrr.r...r...r.rr.r
2 rr................
3 .......r..........
4 r.r..r.......r....
5 rrrrrrr.r........r
6 rrr..r...rr....r..
7 rrrr.............r
8 rrrrr.r...r.......
9 rrrr.rrr...rrr..r.
0 rr...r....r.r.rr..
1 ..r.r.......rr.r..
2 ..r....rrrrrr.....
3 rrrr....r...r.r...
4 rrr........r..r..r
5 rrrrr.....r...r...
6 .r...rr...rrrr....
7 r.rrrrr.....rr...r

Turn = 475.
  012345678901234567
0 rrrr.rr....rr..r..
1 rrr.rrr..rrr......
2 rrr.r........r....
3 rrr....rr.........
4 rrr.r.rr..r.......
5 rr..rr..r.........
6 ....r....rr.......
7 .rrr........r...r.
8 r.rr.....rrr..rr..
9 ....r.r.r...r.r...
0 ..r...........rr.r
1 rrr.r.r..rrr..rr..
2 rr.rr..rr.r..r..rr
3 .rrr..............
4 .r..rrrrr..r......
5 .rr...........rrr.
6 rrrrr.r.r....rr..r
7 rr..r.rr....rrrr.r

Turn = 570.
  012345678901234567
0 rr.rrr...rrrr.rr.r
1 ..rr.rr..rr..rr.r.
2 .rrr...rrrr.r.....
3 .rrrrr........r..r
4 rrrr.rrr........r.
5 r.r.rrr...rr.r....
6 rr..rrr..r........
7 ..rrrr..r..r...r.r
8 rrr..........r....
9 r..rrr..rr........
0 rr....rr....r.....
1 r.r..r.........r..
2 r.rr.r.r.r........
3 rrrr...r..r..r..rr
4 r.r.rr.....r...r.r
5 .r.r...r..........
6 ..rrr...r.r....r..
7 ...r......rr.....r

Turn = 665.
  012345678901234567
0 ..rr.r...r..r....r
1 rrrrrr..r.......rr
2 r..rr........r....
3 r.r..rrrr.r..r....
4 rr.r..rr......r...
5 rr..r.rr..rrr..r..
6 .rrrr.r.r..r.....r
7 rrrr.r..rr...r...r
8 rr..r...r...r..rrr
9 r.rr..rr..........
0 .rr..r....r.rrr...
1 .r..rr..r.....rrrr
2 .rr..........rr..r
3 rrr........r...r.r
4 .....rr.......r.r.
5 r.r.r.......rr...r
6 r..r.r.....r....r.
7 .r..r.r..r.r.r...r

*** Darwin 15x16 ***
Turn = 0.
  0123456789012345
0 .....hthtrr....t
1 ......h.ht.ff...
2 thrtr.....rtt...
3 .f..r...rttff..f
4 rt.h....rt.....h
5 tt....r....f.rt.
6 ft......fh......
7 ..h.h.t.h.tt....
8 r.......f.r....r
9 r.f.t...t...rh..
0 .......f.htthrhr
1 .r.h.f...f....rt
2 ...t.t.ffrt.ff.h
3 ...t...fh.h.h...
4 ftfhtfh....h.fhh

Turn = 86.
  0123456789012345
0 ....t.ttttt.....
1 tt..ttttt.......
2 tttttt.t........
3 tttt............
4 ttttt......tt...
5 tttt......t.....
6 tttt..t...tt....
7 t........ttt....
8 ttt...t..tttt...
9 ...ttttttttttt..
0 ..tttttttttt....
1 .....t.tttttt...
2 .......t.tttt...
3 ....t....ttt....
4 ....tt...ttttt..

Turn = 172.
  0123456789012345
0 ....t.ttttt.....
1 tt..ttttt.......
2 tttttt.t........
3 tttt............
4 ttttt......tt...
5 tttt......t.....
6 tttt..t...tt....
7 t........ttt....
8 ttt...t..tttt...
9 ...ttttttttttt..
0 ..tttttttttt....
1 .....t.tttttt...
2 .......t.tttt...
3 ....t....ttt....
4 ....tt...ttttt..

Turn = 258.
  0123456789012345
0 ....t.ttttt.....
1 tt..ttttt.......
2 tttttt.t........
3 tttt............
4 ttttt......tt...
5 tttt......t.....
6 tttt..t...tt....
7 t........ttt....
8 ttt...t..tttt...
9 ...ttttttttttt..
0 ..tttttttttt....
1 .....t.tttttt...
2 .......t.tttt...
3 ....t....ttt....
4 ....tt...ttttt..

Turn = 344.
  0123456789012345
0 ....t.ttttt.....
1 tt..ttttt.......
2 tttttt.t........
3 tttt............
4 ttttt......tt...
5 tttt......t.....
6 tttt..t...tt....
7 t........ttt....
8 ttt...t..tttt...
9 ...ttttttttttt..
0 ..tttttttttt....
1 .....t.tttttt...
2 .......t.tttt...
3 ....t....ttt....
4 ....tt...ttttt..

Turn = 430.
  0123456789012345
0 ....t.ttttt.....
1 tt..ttttt.......
2 tttttt.t........
3 tttt............
4 ttttt......tt...
5 tttt......t.....
6 tttt..t...tt....
7 t........ttt....
8 ttt...t..tttt...
9 ...ttttttttttt..
0 ..tttttttttt....
1 .....t.tttttt...
2 .......t.tttt...
3 ....t....ttt....
4 ....tt...ttttt..

Turn = 516.
  0123456789012345
0 ....t.ttttt.....
1 tt..ttttt.......
2 tttttt.t........
3 tttt............
4 ttttt......tt...
5 tttt......t.....
6 tttt..t...tt....
7 t........ttt....
8 ttt...t..tttt...
9 ...ttttttttttt..
0 ..tttttttttt....
1 .....t.tttttt...
2 .......t.tttt...
3 ....t....ttt....
4 ....tt...ttttt..

Turn = 602.
  0123456789012345
0 ....t.ttttt.....
1 tt..ttttt.......
2 tttttt.t........
3 tttt............
4 ttttt......tt...
5 tttt......t.....
6 tttt..t...tt....
7 t........ttt....
8 ttt...t..tttt...
9 ...ttttttttttt..
0 ..tttttttttt....
1 .....t.tttttt...
2 .......t.tttt...
3 ....t....ttt....
4 ....tt...ttttt..

Turn = 688.
  0123456789012345
0 ....t.ttttt.....
1 tt..ttttt.......
2 tttttt.t........
3 tttt............
4 ttttt......tt...
5 tttt......t.....
6 tttt..t...tt....
7 t........ttt....
8 ttt...t..tttt...
9 ...ttttttttttt..
0 ..tttttttttt....
1 .....t.tttttt...
2 .......t.tttt...
3 ....t....ttt....
4 ....tt...ttttt..

Turn = 774.
  0123456789012345
0 ....t.ttttt.....
1 tt..ttttt.......
2 tttttt.t........
3 tttt............
4 ttttt......tt...
5 tttt......t.....
6 tttt..t...tt....
7 t........ttt....
8 ttt...t..tttt...
9 ...ttttttttttt..
0 ..tttttttttt....
1 .....t.tttttt...
2 .......t.tttt...
3 ....t....ttt....
4 ....tt...ttttt..

*** Darwin 13x20 ***
Turn = 0.
  01234567890123456789
0 .........t.h...r.f..
1 ...h....h.rr.rt.t...
2 f..f.r..ff.f.....f..
3 ....tf..ffh...t.h...
4 r......f......tr....
5 htr...f..r......ffh.
6 ........t.hhrrf..tr.
7 hr.f.t........t...fh
8 f..h...tt.h.rhf...f.
9 rt.h.h.ft...f.......
0 .h.f.........ft...hh
1 ..t.......f...t.rt..
2 ........fth...f.f..t

Turn = 5.
  01234567890123456789
0 .....r...tt..r...f..
1 r..hh........rttt...
2 .rrr....ff.......f..
3 rr....r.ffrrrht.....
4 .......f.rr...t.h...
5 ..t...f.t.......tt.h
6 h.......rr....f..tt.
7 h..f.t.......rrr..tt
8 f.....tttt.......rtt
9 .t.h...tt...f..r.r..
0 .t.f.........tt....h
1 ..t.......t...t....r
2 .r...h..ttt...t.r.r.

Turn = 10.
  01234567890123456789
0 rr.r....rrrr.....r..
1 .rr.....r.r....ttt..
2 .....r...r...t...t..
3 ......r..r.rrrt.....
4 .rr..r..r......tt...
5 ..tr..f..r...r.rtt.r
6 h........r......rttr
7 h..f.t...r.r.....trr
8 f.....tttt.......trr
9 .t.h...t....f......r
0 .t.f.........tt.....
1 ..t.......t...tt...r
2 ....rr.rttt...tt..r.

Turn = 15.
  01234567890123456789
0 r....r.rr..r..r.....
1 ......rr......tttt.r
2 r...rr...r....r..t.r
3 rr..........rr.....r
4 rr........rrr..tt...
5 .....rf....rr...tt.r
6 h....t.....r....ttt.
7 h...rr........r..tt.
8 fr.r.rtttt.........r
9 .rrr...t....f..r.rrr
0 r...r........tt....r
1 ..t.......t...tt....
2 ...r....tttt..tt....

*** Darwin 19x17 ***
Turn = 0.
  01234567890123456
0 ....ttf..r....hrh
1 ..r.tr....fr.....
2 .f...r...f.hhtrf.
3 ...r..tr..h.f..h.
4 ttff......tthr..f
5 ....h...fff....hr
6 .......h..t.f...r
7 ..f.h.r...h......
8 .......t..r..rtht
9 t..rtth..rrr.r.t.
0 .rf.rh....frr.f.r
1 hth......f...r...
2 .....hh..ht.ht.fr
3 t...ff..r..ft...h
4 h....t...f.....f.
5 ...r....rf.....tt
6 ...hf.f...t.rr...
7 hh...h....f..trf.
8 .f....tf....h....

Turn = 12.
  01234567890123456
0 r....r....rhr...r
1 ...r..r.rr.......
2 rf.....rr..r.tt..
3 .........r...trr.
4 rrtt...rr.r..ttrr
5 .r..r....fr.r.trr
6 ....hr.rr.tr..t.r
7 ....h..r..t.r...r
8 t.....ttr.trr...r
9 t...tt.r...rr....
0 t...tt...ttt.r..r
1 .tt......tt......
2 .t......ttrtt....
3 t...tt....rtt..t.
4 ..r.ttt..f.....tt
5 r...t.t..f.....tt
6 .....rt...t.....t
7 ..........tt...f.
8 .f.rr.tttt.t.....

Turn = 24.
  01234567890123456
0 rr....r...rr...rr
1 r..r..r.rr......r
2 ...r....rr.rrr...
3 r.....t....rr.r..
4 ..ttttt....r....r
5 r....t.r.rr.r...r
6 .........rrr....r
7 ...r.....rrr.r...
8 ..r.rr.tr..r....r
9 r..rrttttt.t.....
0 t...tt...ttttt...
1 ttt......ttt.....
2 .tt.....ttttrt.r.
3 ...rrt....tttrrr.
4 ......t..f.....rr
5 ....ttt..f.....r.
6 ...r..t...t.....t
7 .....t....tt...r.
8 .f...ttttt.t..r..

Turn = 36.
  01234567890123456
0 .r.rrrrr...rrr..r
1 r..r.r.rr...rr...
2 ..r...t..r...r...
3 ..r...tt.....r...
4 ....tttt......rr.
5 ...tt.tt.........
6 rr...r..tr.......
7 .r.r.r..r.r....r.
8 rr............r.r
9 ....t.ttt........
0 .t.ttt...tttttt.r
1 ttttt....tttt...r
2 .tr...r.tttttrrr.
3 ..r..t....tt.r...
4 ......t....t.....
5 ....ttt..f.tt....
6 r.....t.r...t...r
7 r....t...t.ttt...
8 r....ttttt.ttrr..

Turn = 48.
  01234567890123456
0 r.......r..r.r..r
1 .....t....r.r.rr.
2 .rr.rt...r.......
3 .....trt.......rr
4 ....tttt.........
5 r..ttttt.r.......
6 rrrtt...t..rr....
7 r..r.............
8 r..........r.....
9 rr..t.tttttrtt...
0 rtt.tt....tttt..r
1 ttttt....tttt...r
2 .tt.....tttttt...
3 .tt..tt...ttt..rr
4 ...........t.....
5 ....ttt..f.tt....
6 ......tt....t....
7 .r.r.r...t.ttt...
8 ....rttttt.tttttt

Turn = 60.
  01234567890123456
0 r.r............rr
1 ...r.......r.....
2 ...rrtrr.........
3 .....ttrr........
4 rrr..rtr.r......r
5 rr..rrt.r.t......
6 r.rr.rr..tt......
7 r.r.r......r.....
8 .....r....r.rrr..
9 ...rt.tt.r.rrt.r.
0 .tt.tt....tttt...
1 ttttt....ttttt...
2 .tt.....tttttt...
3 r....tt...ttt....
4 .r.r.......t..r..
5 ..rrrrr.r..ttr...
6 .......t.r..t....
7 .....r.rrt.ttt.t.
8 ..r....r.t.tttttt

Turn = 72.
  01234567890123456
0 r.r.r.r...r...rr.
1 r...r.r...r......
2 r......r..rr..r..
3 r..r.rr...r.r...r
4 r..r...rrr..r....
5 r..r....rr.......
6 rr.....r..r.r....
7 r...........r....
8 r.r..........r...
9 rr..tt.....rrt...
0 r..rt.....tttt...
1 r..ttt.r.ttttt.rr
2 r...trr.t.tttt...
3 r.r....rr.ttt....
4 .rr....r...rt....
5 rrrr.......rttt..
6 rr........rrt...r
7 r........r..tt.tr
8 ..rr.....rttttttt

Turn = 84.
  01234567890123456
0 .rr.rrr.r......rr
1 ..rr...r.......rr
2 r.r.......rr....r
3 ..r....rr.r......
4 ........r...r....
5 .................
6 .r...............
7 rr.r....r..r.....
8 rrrrr.........r.r
9 r.rrrt....rrr.r..
0 r..rrt...ttttt...
1 ..rrrtt..tttttr.r
2 r..rttt..ttttt...
3 ..........rtt....
4 .........rrtt....
5 ...........ttttrr
6 r.r...r....tt.ttt
7 rrr..rrrr...tt.tt
8 .r.r.r..rrr.ttttt

Turn = 96.
  01234567890123456
0 r..rr.r.r......rr
1 r......r.........
2 r............r...
3 r.....r..........
4 ......r........r.
5 .......r..r......
6 r.....r....r.....
7 rr.........rr...r
8 rrr.r........rr..
9 r..r.t...tt.t....
0 ...rrtt..ttttt..r
1 r..rttt..ttttt.r.
2 rrr.ttt.rrtttt...
3 ...rrt....ttrr..r
4 ..r.......tttrr..
5 r.........ttttttt
6 .rrr.......tt.ttt
7 r..r..r..r.rrt.tt
8 .rr...r.rr.rttttt

Turn = 108.
  01234567890123456
0 rr......rrr......
1 ...r.............
2 rr........r......
3 r..r...r....r....
4 rrr.............r
5 .r.............r.
6 rr.r..rr..r....r.
7 .r........r..r..r
8 .....rrrr.......r
9 .r..r.r.........r
0 r......r..rttt...
1 rrr...tt..rttt...
2 rr...rttttrrtttr.
3 r........ttrttt..
4 ......r....rrtttt
5 .r.rr.....ttrrttt
6 ..r...r.r.trrrrtt
7 r..r.r.r..t..rrtr
8 .r.r.rr..rrrr..rr

Turn = 120.
  01234567890123456
0 .rrr....r.r..r.rr
1 r...r............
2 r.r.............r
3 rr....r........r.
4 ..r..r....r......
5 ..rr..........r..
6 r...r............
7 rr..rr...........
8 rrr....r.r.r.....
9 r..rr.r...r...r..
0 rr...r.....ttt...
1 r.....tt.ttttt...
2 r.....ttttttttt.r
3 rr........rrrtttt
4 rr..r....rrrttttt
5 .....r.r..r.trttt
6 rr....rr.r.r.rrtt
7 ....r..r.rrr.rrrr
8 rr.......rr.r..rr

Turn = 132.
  01234567890123456
0 rr.rr.r.........r
1 r...r.rr.........
2 .r.r.............
3 .................
4 .r...........r...
5 rr....r..........
6 rr....rr.........
7 r...rr..r........
8 rr.rr...........r
9 rr.....r.r.......
0 r.......rrrttt..r
1 .rr..r.rrrrtttt..
2 rrr...rrrttrttt.t
3 rr....rrrtttttttt
4 .......r.t.tttttt
5 rr....r.r..tttttt
6 rrr.r.......t.ttt
7 ..r.rr..rr.r...tt
8 .rrrrr.r........t

Turn = 144.
  01234567890123456
0 .rr..r...r......r
1 ..r..r...........
2 rrr.....r........
3 rrrr...r.rr......
4 r..rr.r...rr.....
5 rrr..rr.r.rr....r
6 ......rrr..r.....
7 r................
8 .....r...........
9 rrrr....rr...t...
0 rrr...r..r.rttt.r
1 ..rr.rr.r..rttt.r
2 r.rrr.r.....ttt.t
3 rr..r.r....r.tttt
4 rr.rrr.....tttttt
5 .....r.....tttttt
6 r.rr........t.ttt
7 ..r...r...r....tt
8 r.r..r..r..r....t

Turn = 156.
  01234567890123456
0 rr.rr.r.rrr..r.r.
1 rrr..rr.rr.......
2 r..r......r..r..r
3 rr.r.r......r...r
4 ..r..rr........r.
5 r.r...r....r..r.r
6 rrr..rr..........
7 rr...............
8 rrr...r..........
9 r............t.rt
0 r...r.......ttttt
1 ....r......rrrrtt
2 .r.rr...r.r..r.tt
3 ...r.....rrrrt.tt
4 rr...r..r.r..tttt
5 .r.rr....r.r.tttt
6 ..r........rt.ttt
7 r.r....r...r..ttt
8 .r....r..r..r..tt

Turn = 168.
  01234567890123456
0 .r.rrr..r.r...r..
1 ...r.rr.rr.......
2 .r.....r.r.......
3 rrr......r....r..
4 rrrrr...r....rr.r
5 rrr.......r...r.r
6 rr..rr...........
7 r.rr..........r..
8 ....r...rr....r.r
9 r..........rtr..r
0 r.r.rr.r...rr.rrt
1 r......r......rrr
2 r.r.rr..rrr.rr.rr
3 .....r..r...rrttt
4 r..........rrtttt
5 r..r.rr......rttt
6 ...r...r.....rrrr
7 ...r......rr..rrr
8 ..r...rrr..r..r.r

Turn = 180.
  01234567890123456
0 rr.rrr...........
1 r..r..r.......r..
2 ..rr.r...r.......
3 ...r.....r...r..r
4 rr.rr.rr..rrr....
5 r..r..rrr..r...r.
6 r....r..r.r...rrr
7 ..rrrr..r.....r..
8 ...r.r.......rr..
9 ........r..r....r
0 r....r.....r..rr.
1 ..r..r.rr...r..rr
2 .rrrr....r..r.rrr
3 ......rrr.....trr
4 ...rrrr.......trr
5 ...rr...r.rr..rrr
6 .r..r..rrr..rr.rr
7 .r..rrrr....rrr..
8 ..r.r.r...rr.r.rr

Turn = 192.
  01234567890123456
0 r.r....rr.rr.r...
1 rrr...r.......r..
2 .rrr........r...r
3 rrr........r.rr..
4 r........r.r.....
5 rrr.....r........
6 rr.rr...r.......r
7 rr....r........r.
8 ......r...r.....r
9 ......r.r.r.r...r
0 r..rrr.r...r....r
1 .rrrrr....rr..r.r
2 .rrrrrr....r...r.
3 r.r.r...rr..rrr.r
4 .r...r...r....rrr
5 .rr.r..rrrr...rrr
6 r.rrrr.r.r..rrrrr
7 ....r.r.r.....r..
8 r....r.rrrr....r.

Turn = 204.
  01234567890123456
0 r...rr...r.......
1 rrr.r.r........r.
2 rr...............
3 rrrrr............
4 .rrr..rr......r.r
5 .rr..r....r..r...
6 rr.........r.rr..
7 ...r.r..r.rr.r...
8 r.rr.r..r..r...rr
9 rr...r.r.r.rr.r..
0 .rr....rrrr.rr.rr
1 r.r...r.rrrrr.r..
2 rrrr.rr.....rrr..
3 r...r.r.rr.r.....
4 rr.r..rrr.r..r...
5 ..r.rrr.......r..
6 rr.........r.rr..
7 r.rr..r...r..r..r
8 r..r..r.......rr.

Turn = 216.
  01234567890123456
0 r..r...r.rrr..rr.
1 .rr.r.r..rr..r.r.
2 ..r..rr.....r...r
3 ..r.rr.r...r.r...
4 ...r.rr..r.......
5 rr..rr..r.r......
6 r....r...r.r.r..r
7 .r..r.......r.r.r
8 rr.rr.r...r.....r
9 .r...rr.......rr.
0 ..r...rr..r..r..r
1 rr......r.r.r.rrr
2 rrr..r...r....r..
3 rr......rr......r
4 rr.....r.r....r.r
5 rr.r.r...........
6 rr..r.r...r......
7 rrrrr..r.rrrr..r.
8 r.r.rrrrrr......r

Turn = 228.
  01234567890123456
0 .rrr.rrrrr...rr.r
1 .....r.rrr..r.rrr
2 r...r.rr.........
3 rr....rrr........
4 rr....r..r.....r.
5 r...r..rrrrr..rrr
6 rrr....r..r......
7 rr....rr.r.rr...r
8 .r..r..rr..r..r.r
9 ......r......rr..
0 .r.r.............
1 r.r........rrr.r.
2 r....r....rrr...r
3 r..r..r..r.r....r
4 r..r...rrrr.rrr..
5 ..rr......r..rrr.
6 rr.r......r.....r
7 rrr.rr...........
8 .rrr..r..rrr..r.r

Turn = 240.
  01234567890123456
0 rrrr.rrrrrr.r....
1 rrr.r.rr.rrr.....
2 rrrrr.rrrr..r....
3 r.r..r.r.........
4 ...r..r....r...r.
5 ..r...r...rr..r..
6 .rrr...rrr.......
7 r.....rrr........
8 r.r.r..r........r
9 r...r....rr.....r
0 .rr.r...r.......r
1 .rrrr..r.r.....r.
2 r..r.r.r..r.....r
3 r.r.rr..r..rr....
4 rrr.rr.rr.....r..
5 ...rrrr.....rr...
6 rr.....r....rr...
7 .....r...r..rr..r
8 .rrr..r.r..r.rr..

Turn = 252.
  01234567890123456
0 rrr.r..rr.....rrr
1 rrr.rr.......r..r
2 r.rrrrr..........
3 .rr..............
4 rr.rr..r..rrrr...
5 .rrrr..rr...rrr..
6 ...r..rrrr.rr....
7 .rrrr.rr.rr......
8 ...rrrr...r...r..
9 r.r.r.r..........
0 ..rr.r..r....r...
1 ..r.rrr..r......r
2 r.....r....r...rr
3 r.r.rrr...r..rrrr
4 r..rr........r..r
5 r..r.r.r....r....
6 .....rr...r.r....
7 r.r.rr....r...r.r
8 rrrr.r..........r

Turn = 264.
  01234567890123456
0 rrrr..rrr...rrr..
1 rr....r....r....r
2 rrrrr.r...rr...r.
3 r.r.rrrr..r.r...r
4 .........r.......
5 r..r.rr.r........
6 rrr.r.rr..rr.....
7 ...r.r.rr..r....r
8 r.....rrrr......r
9 rrrr..r..r......r
0 ...r...r.r.r.rr.r
1 rr....r..r.r...r.
2 ...r.....r.r.....
3 r..r.r.r...rrr..r
4 rr.r..r...rr...rr
5 .r....r.rrr.....r
6 rr.....rr........
7 rr.r...r.r.......
8 r.r.rr..r.r.....r

Turn = 276.
  01234567890123456
0 rrrrr..rr......r.
1 .rrrr.r..rr...r..
2 r.rrrrr...rr.....
3 rr.......r......r
4 r..r.rrr...r....r
5 rrr..r.r..r....r.
6 r....r....rr.....
7 rr....rr.r..r...r
8 rrr...r.rr..rr...
9 rr..........r...r
0 rrr...r......r...
1 rr..rrrrr...rr.r.
2 r.rrrr.r.....r..r
3 r.....rr......rr.
4 rr.........r.....
5 r...r.......r....
6 rr........r....r.
7 rrrrrr.......r..r
8 .rrrrr...rr.rr...

Turn = 288.
  01234567890123456
0 r..r.rrr....rrrr.
1 ...r.rr.....rrr.r
2 r....r......r....
3 r.rrrrr....rr....
4 .r...r..rr....r..
5 rrrr.r..r..r....r
6 rrr.r..r.r.rr.r..
7 rrrr......r..rrrr
8 rr..r...r..r.....
9 rr..rr.r.........
0 r..rr..r.........
1 r.r.....rr..r...r
2 rr..r..rr.r..rr..
3 ..r...r....r.....
4 rrrr.r.r.....r...
5 r.r.r.r....r.r.r.
6 rrrr..r..........
7 rrr.....rr..r....
8 r.rrr........r..r

Turn = 300.
  01234567890123456
0 rrrr..rrrrr..rrr.
1 rrrr..r.r.r.....r
2 r..rrr....rr.....
3 .rrrr..r.r..r.r..
4 r.rr....rrr....r.
5 .r...............
6 rr.r...r..r.r....
7 .r.r..r...r.....r
8 rrrrrr...r.......
9 r.r....r........r
0 rrr..............
1 rrr.r..rr.r.....r
2 r.rr.r...rr.rr...
3 .rr.r.r..r..r....
4 rr..r..r.......rr
5 rr..r..rr.....rr.
6 r.rr...r......rr.
7 rrr.rr...........
8 rrr.r.r.....r...r

Turn = 312.
  01234567890123456
0 r..r...r.rr.rr..r
1 rr....r........r.
2 rrr..rrr.........
3 rr..rr.rr..r....r
4 rrrrrr..rr.r.r.rr
5 rrr.....rr.......
6 rrrr...r.......r.
7 r.r.r.r.rrrr.....
8 rrr....r.........
9 r..r...rr.....r..
0 .r..rrr..........
1 rrr............r.
2 .rr.r.r.r....rr..
3 r..r.......r.....
4 r..rr.rr.....r..r
5 rrr..rr..........
6 rrr...r.....r....
7 .rrr.rr.r....r.r.
8 .rr..rrrrrrr..r.r

Turn = 324.
  01234567890123456
0 rrrr.r...r.rrrr..
1 rr..r.r....r.....
2 rrrrr.r..........
3 r.rr..r..r.rr..rr
4 rrrr..r..r..r..rr
5 rrr...r........r.
6 rrr.r..r.r.......
7 rrrr.............
8 rrr..............
9 rrrr.r...........
0 r.rr..r.r........
1 .rr..r...........
2 rr..rrr....rr....
3 rrr........rr...r
4 .rr....rr..rr....
5 r.rr....rrr.....r
6 rrrrr.r.rr.r....r
7 rrrr.rr..r..r.r..
8 r...rr....rr.....

Turn = 336.
  01234567890123456
0 rr.rrr.r.r.rrr...
1 rr...r...r.r....r
2 r..r.r.........r.
3 rr.r.....r...r..r
4 rrrrr............
5 rr.rrr...........
6 rrr.....r........
7 rr..r...r.r......
8 rr...rrr...rrr.r.
9 rr...rr.r.r.rr...
0 .....r..r.rrrr.r.
1 r.r....r.r....r.r
2 r..r...r....r...r
3 rr.....rr.r.rr...
4 rrrrr..r....r....
5 rrrr..rrrr.r.rr..
6 .rr...r....r.....
7 rr.....rr.......r
8 rrr.....r...r...r

Turn = 348.
  01234567890123456
0 rr...rrr.r.r..rrr
1 rrrr...r...r....r
2 r..r..r..........
3 rrr.r............
4 r.rr..r.....r.r..
5 .r..r...r.rr.....
6 ..rr.r...r..r...r
7 .rrrrr..........r
8 rr...r........r.r
9 ..r..rr.....r...r
0 .rrr..r..r.....rr
1 rr.rr.rrrr.r..r..
2 r....r.r.rr.r....
3 r...rr........r..
4 ..rr.rrr.......r.
5 ....rrr....r.....
6 rrrrrrr.r....r.r.
7 rr..rrrrr........
8 rr.rr.rr.r..rr...

Turn = 360.
  01234567890123456
0 rrrrr.r.rr.r.r.r.
1 r..r..rrr........
2 r.r.....r.rr.....
3 .r....r.r..rr....
4 r.rr.........r.r.
5 r.r..rrr..rr.....
6 ..r.r....r.......
7 r.r.r....r..rr...
8 ..rr...r......r.r
9 r.r...rr.r.......
0 r.rr.r.r...r..r..
1 r.rr..rr.r...r...
2 rrr....r..rr..r..
3 r.r.rr......rr...
4 .rr.r..........r.
5 rrrrr.r.rr....r.r
6 rrrrr......r.r.rr
7 .rrrr...r..r..rr.
8 r....rr.....r..r.

Turn = 372.
  01234567890123456
0 rrrrrr.r....rr..r
1 .r.r.rr..r.....r.
2 .r..rrrr.....r..r
3 r.r..r......rr.r.
4 .r.r.rrr...r..r.r
5 r.rr....r......rr
6 rr.rrr...r....rr.
7 r..r.r..r.....rr.
8 r..............r.
9 r............r.r.
0 r...rrr.r...r.rrr
1 rr...rrr...r....r
2 r....r.rr..r....r
3 r.....r..rr......
4 rr....r....r....r
5 .r..r...rrr......
6 rrr.rr.r.r.......
7 rr...rr...r....r.
8 rrrrr..rrr..r....

Turn = 384.
  01234567890123456
0 rrrr..rrr.rr..rrr
1 r..rr..r.r..rr.rr
2 r...r.r..r.......
3 .r.rr.r...rr.r...
4 rr..r....r...rr..
5 rr.....rrr.....r.
6 r.r...rr.r......r
7 r..rr....r.r.....
8 r.rr..rr......r..
9 ....r.r.r.......r
0 rrr.r..........rr
1 rrr..r.........rr
2 .....r...rr.r....
3 ...rr..rr..r...r.
4 .rr......r.r...r.
5 rr.rr.r...r.rr..r
6 rrrr.rr........rr
7 ..r......r...rrrr
8 r.r.rr..........r

Turn = 396.
  01234567890123456
0 .rr..r.rr....rr.r
1 .rrrrr..r..r..r..
2 ..rr...r....r.r..
3 .r.rr.r..........
4 rrr.rr..r.......r
5 rr..rrr..........
6 ...r.......rr...r
7 rrrr.rr.rrrr....r
8 r..r.r.r.rrr.....
9 rr..rr.r.........
0 r...r...rr.rrr..r
1 .r..rrrr..rrr.r..
2 .r.r.......r.rrr.
3 .rrrr........r...
4 r..r.r...rr......
5 rrrrr.r..........
6 ..rr....rr......r
7 rrr.rrr.r......r.
8 ..r..r...rr......

Turn = 408.
  01234567890123456
0 rr..rrrr..rr...r.
1 rrr.r..rrr....r.r
2 rr...rr.....r....
3 rrrr.r..rrr...r..
4 r.......rrrr...r.
5 r.r..r....rrr....
6 rrr........r.....
7 .rrrr..........rr
8 rrrrr............
9 rrr.....r...r....
0 rrrr.....r.r.r...
1 rr.rr.....r......
2 rr.r.rr..........
3 .r.rr.rr....r...r
4 r..r.r..r........
5 rrr.r....r.r.....
6 rr.rr.....r......
7 r.rr....r.r.....r
8 r.rrrr.rr..rrrr..

Turn = 420.
  01234567890123456
0 rrrrrr.rr..r.r..r
1 rrrr.r...r.rr..rr
2 rrrrr.....r......
3 r.r.r........r...
4 .rrrrr........rr.
5 ..rrr.rr.r....r.r
6 .r..rrr.r...r.r..
7 rr..r.r.r.r......
8 rr...r.r....r...r
9 r....r.....rr....
0 r.r..r...r...r..r
1 ..r....rrr.r.....
2 rr...r.r.........
3 .rr...rr...r....r
4 rrr..r.r.....r..r
5 rrr.rr...........
6 .rr.r.........r..
7 ..rr.....r..r.r..
8 .rrrrr...rr....rr

Turn = 432.
  01234567890123456
0 rr.rr.rr...rr..r.
1 rr.r...r.rr......
2 rr.r...r.r...rr.r
3 rr....r.r...r...r
4 .rrr.......r...r.
5 .r......r....r.r.
6 r.rrr....rr....r.
7 rrr.rrr......r.r.
8 rrr...r.r....rrr.
9 rrr.r.r....rrr...
0 ..r.r...r.....r..
1 .r..r.r.rr.....rr
2 rrr.r..rrr.r.....
3 rrr..rr....r.....
4 rr.rr.......r...r
5 r..r........r..r.
6 r..rr........r...
7 rr.rr...r...r...r
8 r.rr........r...r

Turn = 444.
  01234567890123456
0 rrrrr.....rrr...r
1 rr....r.......rrr
2 ...rr.....r....r.
3 ..r.r.....r..r...
4 rrr..........r...
5 rrr.....r.r....rr
6 rrrrrrrr.rr...r..
7 .r.rr.r.rr..r....
8 r.rr..rrr........
9 rrr....r.........
0 rr..r....rr......
1 rr.rrr.r.........
2 rr.....r.rrrr...r
3 rrrr......r.r..rr
4 .r..rr.r.r..r...r
5 r......rrr.......
6 rr..r.....rr...r.
7 rr.rr.rrr..r.....
8 r.r....r..r.rr...

Turn = 456.
  01234567890123456
0 r..rr..rrrr.r....
1 r..r....rrr.r....
2 rr.r...r..r.rr...
3 ...r..r.rr.r....r
4 rr.......r.......
5 rrrr.r...r...rrr.
6 r..rr.....r..r..r
7 rrr....r....r.r..
8 r.rr.......rr...r
9 rrr.........r....
0 .rr...r.r.r......
1 .r.rr.r.....r.rrr
2 .rrrr...........r
3 .rrrrrr.rr...r...
4 .rrr..r.r...r....
5 rrrr.r...rr..r...
6 rrrr..r..........
7 r.rr....r........
8 rrrrrr..r......rr

Turn = 468.
  01234567890123456
0 rr.r.rr...r.rrrrr
1 r.r..r.r....rrr.r
2 r....r..........r
3 rrr...rrr..r...rr
4 r..rr.....r.....r
5 r..rr.r..r....r.r
6 rrrr.rrrrr.......
7 .rrr..r.rrr......
8 rr......rr..r....
9 .rr....r........r
0 rr....r..........
1 rr.r.....r.rrr.r.
2 r..r........r....
3 r.rr...r...r.r...
4 rrrrrrrr...r...r.
5 .r.r...r.........
6 rr.....rr.....rr.
7 r.rrr...........r
8 rr.r..rrrr....r..

Turn = 480.
  01234567890123456
0 rrr.r.rrrrrr...rr
1 rrrrr...rr....r..
2 rrrr.r.r......rr.
3 r....r.r.r...r.r.
4 r.rrrr.r...r.....
5 rr.rr.....r...r..
6 rrrr.r.rrr....r.r
7 ..r.r....r......r
8 rr..rrr..rrr.r.rr
9 .rr....r.r.r.....
0 rr...r..........r
1 .r..r.......r...r
2 rrrr..r.....r....
3 rr...r...rr.....r
4 r......r..r.r..rr
5 r...............r
6 rrr........r.....
7 r...rr...r..r....
8 rrrr........r...r

Turn = 492.
  01234567890123456
0 rrrrr.rrr...r.r.r
1 rrr..rrrr.......r
2 rrrrr..rrr..rrr..
3 rr.r......r..r...
4 rrr.r.r.....r.r.r
5 rr.r.r..r.rr.r...
6 rrr....r......r..
7 r.r.........r....
8 .r.r.r....r.....r
9 .r..r...r...rr...
0 r............r.r.
1 r..r.r..r.......r
2 ...r..r........r.
3 r.r...rr.........
4 r......rr.......r
5 rr...rrrrr..rrr.r
6 r.r...rr.r.......
7 rr..r.....r.r.rr.
8 r.rrrrr..r.r....r

*** Darwin 12x10 ***
Turn = 0.
  0123456789
0 hf...h....
1 .hf....hr.
2 ..t.t.h..h
3 .ft....r..
4 r........r
5 ..t.f.....
6 ..hh.f..t.
7 t...h.r.r.
8 .....h.t..
9 h.r.tft...
0 ft.f......
1 ........h.

Turn = 99.
  0123456789
0 r..rr.....
1 .........r
2 .r.......r
3 ..........
4 ..........
5 r..rrt...t
6 .r...tt.tt
7 ......tttt
8 .......ttt
9 .....rrttt
0 ..r.r.rr..
1 .r..rrrr..

Turn = 198.
  0123456789
0 rrr..rr..r
1 rr....r.rr
2 ....r..r.r
3 .r........
4 r.r..r...r
5 .rr..r....
6 rr........
7 .r...r....
8 ......r.r.
9 r.......t.
0 r....rr...
1 rr.r.r....

Turn = 297.
  0123456789
0 .r...r..r.
1 r...r.....
2 .r.......r
3 .....rr...
4 r..r......
5 ....rr.rr.
6 .r...r....
7 ..r.rr....
8 rr..r.....
9 ..rr...rrr
0 rr.....rrr
1 rrr..r....

Turn = 396.
  0123456789
0 ..r...rr..
1 r...r..r..
2 ....rr.r..
3 r.r.......
4 rrrr.r....
5 rrrr..rr..
6 rr......r.
7 .rr..r.r..
8 ..........
9 rr..r.r...
0 ....r....r
1 .r...r....

Turn = 495.
  0123456789
0 .....rr..r
1 r.......r.
2 ......rr.r
3 r....rr...
4 ..r..r....
5 r...rr....
6 ....r...r.
7 rr.r.....r
8 ..rr....rr
9 .r........
0 r.r......r
1 .rrrrr..rr

Turn = 594.
  0123456789
0 ..r.r...r.
1 r...r.....
2 rr........
3 .r...r..r.
4 rr..rr.r.r
5 r..rr....r
6 r..rr.r..r
7 r........r
8 r......r..
9 .r..rr....
0 ....r.r...
1 ...r.r.r..

Turn = 693.
  0123456789
0 .r..rr....
1 .r.r.r.r..
2 rr....rr.r
3 ...r..r..r
4 r.rr.....r
5 rr.r.....r
6 r..r.r...r
7 .........r
8 .........r
9 r...r....r
0 ...r....r.
1 ..rr.....r

Turn = 792.
  0123456789
0 rrr.r....r
1 .rrrrr..rr
2 rr.......r
3 rr...r....
4 r...r.r...
5 r..r...r.r
6 r........r
7 rr........
8 .r..r.....
9 .....r....
0 .r........
1 rrrr......

Turn = 891.
  0123456789
0 rrrrr..rrr
1 rrr....r..
2 .r.r.r...r
3 .........r
4 ..rr.r....
5 ..r..rr...
6 r....r.r..
7 ..r.r.r...
8 r...rr....
9 ...r......
0 r.r.......
1 .....rr...

*** Darwin 17x10 ***
Turn = 0.
  0123456789
0 tr...hr.th
1 .h..f.....
2 t........r
3 f.t....t..
4 ..........
5 .....f...r
6 .....r....
7 .fh.ffh..t
8 .f.t.h..ft
9 ..r.....r.
0 .....h....
1 t.....tt.h
2 f.........
3 .....r.t.h
4 ..........
5 .r.h.ft...
6 ...t.h.f..

Turn = 59.
  0123456789
0 rr.rr..r.t
1 .........t
2 ........tt
3 r..r.rtttt
4 ..r..rrrrr
5 r.....r.t.
6 ........tt
7 r...r...rt
8 ..........
9 r.r..r....
0 rr..r.....
1 .r........
2 ..........
3 r.........
4 ...r...r..
5 ..........
6 r..r..r.r.

*** Darwin 15x20 ***
Turn = 0.
  01234567890123456789
0 ......rh..h.h.rr....
1 ...t...........r.r..
2 rr...fr..........h..
3 ft.f.rrf..h...h.....
4 ....f.......h..h....
5 .t.th.....tr.r.....h
6 .....tt...h.h..h..f.
7 .tr......rft..hf....
8 ..h.rtt.f..f...f..r.
9 ..ht.h.hr.hfr.......
0 .f.t.....f.f.h..rf..
1 .ff..f...rt.....h...
2 fr....r..h......t.r.
3 r......h..tfr.h..f..
4 ...f..f.f.h.......fr

Turn = 34.
  01234567890123456789
0 ...tttrr.r.r.....r.r
1 ...ttttr............
2 tt..t.rrr.r........r
3 ttttrr..rrr.r.......
4 t.tt..rr..rr.......r
5 t.....r...rr....r..r
6 rtr.........rrr....r
7 rr...........rr.....
8 ...r.rr.........r...
9 r..rr........rr.....
0 r..r...r.........t..
1 .......r...r...r...r
2 r.rrr.............r.
3 rr...rrr.rr.rr......
4 ...r.r.r........rr..

Turn = 68.
  01234567890123456789
0 ...ttttttttt....rr..
1 ...tttttt..rr.......
2 tt..ttt...rr.r......
3 tttttttt...........r
4 t.tttttt...........r
5 ttt.t..r............
6 ttt.........r......r
7 tt.r...r..........r.
8 tt......rrrrr.......
9 tr......r...........
0 t.r...r.r...........
1 .r...r.r.....r......
2 .....r..............
3 .r..r...r..r........
4 rrrr.r....r...rrrr.r

Turn = 102.
  01234567890123456789
0 ...ttttttttt.r.r....
1 ...ttttttt.t.....r..
2 tt..tttttt.t........
3 ttttttttt...........
4 tt.tttttt.rr.....r..
5 tttttttt......r...r.
6 ttttttt.r....r......
7 ttt.................
8 ttt................r
9 ttt.................
0 t..................r
1 r..............r....
2 r..................r
3 rr...............rr.
4 .........r..r.r..rr.

Turn = 136.
  01234567890123456789
0 ...tttttttttttt.....
1 ...tttttttttt.t.....
2 tt..tttttt.tr.......
3 tttttttttt.t........
4 tt.ttttttt..........
5 tttttttt..........r.
6 ttttttt...r.........
7 ttt..t..............
8 tttt................
9 ttt.................
0 tt.................r
1 t......r.....r.r...r
2 ...............r....
3 ...................r
4 .......rr...........

Turn = 170.
  01234567890123456789
0 ...ttttttttttrr..r..
1 ...ttttttttttt......
2 tt..tttttt.tt.......
3 tttttttttt.t........
4 tt.ttttttt.....r....
5 tttttttt............
6 tttttttt............
7 ttt..t.t............
8 tttt...t............
9 ttt...........r.....
0 ttt.........r.......
1 t.t.................
2 t...................
3 ....................
4 ................r...

Turn = 204.
  01234567890123456789
0 ...ttttttttttttt....
1 ...ttttttttttt..rr..
2 tt..tttttt.tt.......
3 tttttttttt.t........
4 tt.ttttttt..........
5 tttttttt............
6 tttttttt............
7 ttt..t.t............
8 tttt...t............
9 ttt.................
0 ttt.................
1 t.t.................
2 tt..................
3 ....................
4 ..........r.........

Turn = 238.
  01234567890123456789
0 ...ttttttttttttttt..
1 ...ttttttttttt.....r
2 tt..tttttt.tt.......
3 tttttttttt.t........
4 tt.ttttttt..........
5 tttttttt............
6 tttttttt............
7 ttt..t.t............
8 tttt...t............
9 ttt.................
0 ttt.................
1 t.t.................
2 tt..................
3 ....................
4 ....................

Turn = 272.
  01234567890123456789
0 ...ttttttttttttttt..
1 ...ttttttttttt......
2 tt..tttttt.tt.......
3 tttttttttt.t........
4 tt.ttttttt..........
5 tttttttt............
6 tttttttt............
7 ttt..t.t............
8 tttt...t............
9 ttt.................
0 ttt.................
1 t.t.................
2 tt..................
3 ....................
4 r...................

Turn = 306.
  01234567890123456789
0 ...ttttttttttttttt..
1 ...ttttttttttt......
2 tt..tttttt.tt.......
3 tttttttttt.t........
4 tt.ttttttt..........
5 tttttttt............
6 tttttttt............
7 ttt..t.t............
8 tttt...t............
9 ttt.................
0 ttt.................
1 t.t.................
2 tt..................
3 t...................
4 ....................

Turn = 340.
  01234567890123456789
0 ...ttttttttttttttt..
1 ...ttttttttttt......
2 tt..tttttt.tt.......
3 tttttttttt.t........
4 tt.ttttttt..........
5 tttttttt............
6 tttttttt............
7 ttt..t.t............
8 tttt...t............
9 ttt.................
0 ttt.................
1 t.t.................
2 tt..................
3 t...................
4 ....................

*** Darwin 13x12 ***
Turn = 0.
  012345678901
0 ....t..f....
1 h.....frf.rt
2 .h.tf...r...
3 .tr..f...r.f
4 .h..h..t....
5 ..r..f.trr..
6 ...thh.tfr..
7 ff.....f.t..
8 f.r...hhr.f.
9 fh...f.....r
0 ..ffr...f...
1 .ft...t.h..t
2 ...ff..f....

Turn = 148.
  012345678901
0 r.r.rrr..rr.
1 rr..r....r..
2 rrrrr.....rr
3 rrr..r......
4 r..rr..rr...
5 rrr...r.r..r
6 r...........
7 ............
8 .r.rrr......
9 r.rr.....r.r
0 r..rrr....r.
1 .rr....rr...
2 .rr..rrr....

*** Darwin 15x15 ***
Turn = 0.
  012345678901234
0 hr.f...ftt.ht..
1 ...f..hr..f.fh.
2 .t.f.h...ff..rt
3 ...tt.thht.t...
4 fft.tt.....t.f.
5 r.r..f.tt.h....
6 .h........f....
7 h..r..h........
8 fh.rtt.trff...r
9 h.tt......ht.f.
0 fhff.rh.r...f.h
1 .tt....th.rfhr.
2 .f...hhf.trhr..
3 .h.t.f..f.r.t..
4 ....tf.t..r....

Turn = 185.
  012345678901234
0 rrr.r...r.r..rr
1 rrr..rr.r......
2 ..rrr.rrr.....r
3 rrr..r...r.r..r
4 rrrr..r.......r
5 rrrrr......r...
6 rrrrr...rr..r.r
7 r.r.r.r.rrr.r..
8 ...r.rrr...r...
9 rrr.rr..r.rrr..
0 r....r...rr....
1 .r.........r..r
2 .r.rr..........
3 rr.r...r..r....
4 rrr.rr.rrr.rrr.

Turn = 370.
  012345678901234
0 rrrrr.rrr.r.r..
1 rrr.r.r.r.r....
2 r..rrrr..rr...r
3 .....rrrr.....r
4 rr.rrrrrr.....r
5 ..rrrr..rr..r.r
6 r...rrr.r....rr
7 r..r.r......r..
8 rrr..r...r.r.rr
9 rrrr........r..
0 rr.rr.........r
1 rr.r.......r...
2 r....r..r.r....
3 rr....r.r..r..r
4 rrrrrr..r......

Turn = 555.
  012345678901234
0 .rr.....r.rrrr.
1 .r..r.r..rr...r
2 rrr.rrrr.r....r
3 r.r..rrrrr.....
4 rr.r.rr...r....
5 r.rrrrr.rr.....
6 rrrr..rr.r.r...
7 rr.rr.....rr...
8 r....r....r.r..
9 ..rr.r..r..r.rr
0 r..r.rr......r.
1 .r.r.......rrr.
2 ..r.r.......rrr
3 rr....r....r.r.
4 rrrrr..r..rr..r

Turn = 740.
  012345678901234
0 rrrr...r....rrr
1 rrrr.r..r.rr..r
2 rrr............
3 rr.r..rr...r...
4 .rrr..rr.r.r...
5 rr.rrrr.r.r...r
6 rrr.rr.....r...
7 ..r.r.......r..
8 ..rr.r.....r.rr
9 r.rrr....r....r
0 rr.r.r.r.rr..r.
1 r.r..r...r...r.
2 rr.....r.r...rr
3 r.r.rr.rrrr....
4 r.rrr.rr......r

*** Darwin 11x12 ***
Turn = 0.
  012345678901
0 .h...ftfhr.f
1 .hh....rtht.
2 ....t...hhtf
3 .h....fth...
4 ...rt.r..r..
5 r...t.ht.r.f
6 .fft.f.....t
7 ....f.r.th.h
8 th...tt...h.
9 ..ht...rthf.
0 ttr..fr.hth.

Turn = 4.
  012345678901
0 ....httttt.f
1 rhh.....ttt.
2 ....t.rrrrtr
3 ......r.r.rr
4 ....t.r.rr..
5 .h.tt...r..r
6 .ftt.f.....t
7 ....f...t.tt
8 tt...tt..t..
9 t..t...rttt.
0 ttt.rr.h.tt.

Turn = 8.
  012345678901
0 ..r.ttrttt.f
1 .hh...rtttt.
2 ...r.r..trrr
3 ....r...rrrr
4 ....r.r..r..
5 .t.ttr.r....
6 .ttt.f.....t
7 ....f...t.tt
8 tt...tt..t..
9 t..t....ttt.
0 rtttrr...tt.

Turn = 12.
  012345678901
0 ....r.tttt.f
1 .hhr..trttt.
2 rr...r.rtttt
3 .....r.rtt.t
4 ....tr......
5 .t.ttt......
6 .ttt.t....tt
7 ....fr..t..t
8 tt.r..t..tt.
9 t..t....ttt.
0 ttttt....tt.

Turn = 16.
  012345678901
0 .....ttttt.f
1 .hh.r.ttttt.
2 ..r....rtttt
3 .......rtt.t
4 r..trt......
5 .t.rrt......
6 rttt.t....tt
7 ....tt..t..t
8 rr....t..tt.
9 tr.t....ttt.
0 ttttt....tt.

Turn = 20.
  012345678901
0 ..r..ttttt.f
1 .hh...ttttt.
2 ...r....tttt
3 r..r....tt.t
4 ...ttt......
5 .t.ttt......
6 tttt.t....tt
7 r...tt..t..t
8 r.r...t..tt.
9 r.rtr...ttt.
0 rrrr.....tt.

Turn = 24.
  012345678901
0 r....ttttt.f
1 .hh...ttttt.
2 r.......tttt
3 r.......tt.t
4 ...ttt......
5 tt.ttt......
6 rtttrt....tt
7 r.r..t..t..t
8 ..rr..t..tt.
9 rr....r.ttt.
0 r.r.r.r..tt.

Turn = 28.
  012345678901
0 ..r..ttttt.f
1 rhh...ttttt.
2 ...r....tttt
3 ........tt.t
4 ...ttt......
5 tt.ttt......
6 trtttt....tt
7 rr...t..tr.t
8 r.....tr.rt.
9 .....r.rr.t.
0 rrr...rr.rt.

Turn = 32.
  012345678901
0 ....rrrrr.tf
1 rhh...ttttt.
2 .......rtttt
3 ........tr.t
4 ...ttt...r..
5 tt.ttt...r..
6 tttttt.r..tt
7 ttr..tr.t..t
8 .t..tt.r.rr.
9 ........rr..
0 r...r.....rr

Turn = 36.
  012345678901
0 ...r..rr.ttt
1 .hh..rrrrtt.
2 ........rrtt
3 .......rr..t
4 r..ttttrr...
5 rt.ttrrr..rr
6 tttttt....r.
7 ttt..t..tr.t
8 rt..trr....r
9 ..........r.
0 r.........rr

Turn = 40.
  012345678901
0 r.....rr.rtt
1 .hh.rrr..tt.
2 ......r..ttt
3 .....tt.r.rr
4 ..trttt..rrr
5 t.tttt....r.
6 ttttttr...rr
7 ttt..rrr.r..
8 tt..ttt..r..
9 t........r..
0 ........r...

Turn = 44.
  012345678901
0 r..r.r..rrtt
1 .rrr.r.r.tt.
2 ..r......ttt
3 .....tt...tt
4 ..tttttr...r
5 t.tttt.r....
6 ttttttrr....
7 ttt..trr...r
8 tt..ttr.....
9 t......r....
0 ....r..rr..r

Turn = 48.
  012345678901
0 rr...r.rrttr
1 r..r.....tt.
2 ......t..ttt
3 .....tt..t.t
4 rttttttt...t
5 t.ttttt.....
6 ttttttrr....
7 ttt..ttt....
8 tt..ttt.....
9 t....t....rr
0 r..r.......r

Turn = 52.
  012345678901
0 ..rr.....rrr
1 .........ttr
2 rr....t.rtt.
3 r..r.ttt.t.t
4 r.tttttt...t
5 ttrtttt...rr
6 .tttttt....r
7 ttt..ttt....
8 tt..ttt..r..
9 t....t......
0 tt..........

Turn = 56.
  012345678901
0 r.....r..r.r
1 r......rr.rr
2 r..r..t..tr.
3 ..tt.ttttttr
4 ..tttttt...r
5 ttttttt..r.r
6 .tttttt.....
7 ttt..ttt....
8 tt..ttt.....
9 t....t......
0 tt........r.

Turn = 60.
  012345678901
0 ...r.....rrr
1 ...rr.t.r.rr
2 ...t.tt..r..
3 ..tt.tttttt.
4 ..tttttt....
5 ttttttrrr...
6 .tttttr...rr
7 ttt..trt....
8 tt..ttt....r
9 t....t......
0 tt..........

Turn = 64.
  012345678901
0 ......rrr.rr
1 ...tt.tr....
2 ...tttt.....
3 ..tt.ttttttr
4 ..ttttttt...
5 ttttttt.....
6 .ttttttt...r
7 ttt..ttt....
8 tt..ttt.....
9 t....t......
0 tt........rr

Turn = 68.
  012345678901
0 ....t.r.....
1 ...trr..r...
2 ...rr.tt.rr.
3 ..tttttttttr
4 ..ttttttt..r
5 ttttttt.....
6 .ttttttt....
7 ttt..ttt....
8 tt..ttt.....
9 t....t......
0 tt.....rr...

Turn = 72.
  012345678901
0 ....rr.....r
1 ...trr.....r
2 ...rt.ttt...
3 ..tttttttt..
4 ..ttttttttt.
5 ttttttt.....
6 .ttttttt....
7 ttt..ttt..r.
8 tt..ttt.....
9 t....t......
0 tt.rr.......

Turn = 76.
  012345678901
0 .......rrr..
1 ...ttt.t....
2 ...tt.ttt...
3 ..tttttttt..
4 ..ttttttttt.
5 ttttttt.....
6 .ttttttt....
7 ttt..ttt....
8 tt..ttt.....
9 t....t......
0 rrrr......r.

Turn = 80.
  012345678901
0 .....r...r..
1 ...ttt.tt...
2 ...tt.ttt...
3 ..tttttttt..
4 ..tttttt.tt.
5 ttttttt.....
6 .tttttttt...
7 ttt..ttt....
8 tt..ttt.....
9 tt...t......
0 ttr...r.....

Turn = 84.
  012345678901
0 .r..........
1 ...ttt.tt..r
2 ...tt.ttt...
3 ..tttttttt..
4 ..tttttt.tt.
5 ttttttt.....
6 .tttttttt...
7 ttt..ttt....
8 ttr.ttt.....
9 tt...t......
0 ttr.........

Turn = 88.
  012345678901
0 ............
1 ...ttt.tt...
2 r..tt.ttt...
3 ..tttttttt..
4 ..tttttt.tt.
5 trttttt....r
6 .tttttttt...
7 ttt..ttt....
8 ttr.ttt.....
9 ttr..t......
0 rr..........

Turn = 92.
  012345678901
0 ............
1 ...ttt.tt...
2 ...tt.ttt...
3 ..tttttttt..
4 ..tttttt.tt.
5 rtttttt.....
6 ttttttttt...
7 rrt..ttt....
8 ttt.ttt.....
9 ttt..t.....r
0 tt..........

Turn = 96.
  012345678901
0 ............
1 ...ttt.tt...
2 ...tt.ttt...
3 ..tttttttt..
4 ..tttttt.tt.
5 trttttt.....
6 rrttttttt...
7 ttt..ttt....
8 ttt.ttt.....
9 ttt..t.....r
0 tt..........

Turn = 100.
  012345678901
0 ............
1 ...ttt.tt...
2 ...tt.ttt...
3 ..tttttttt..
4 ..tttttt.tt.
5 ttttttt....r
6 ttttttttt...
7 trt..ttt....
8 ttt.ttt.....
9 ttt..t......
0 tt..........

Turn = 104.
  012345678901
0 ............
1 ...ttt.tt..r
2 ...tt.ttt...
3 ..tttttttt..
4 ..tttttt.tt.
5 ttttttt.....
6 ttttttttt...
7 ttt..ttt....
8 ttt.ttt.....
9 ttt..t......
0 tt..........

Turn = 108.
  012345678901
0 .........r..
1 ...ttt.tt...
2 ...tt.ttt...
3 ..tttttttt..
4 ..tttttt.tt.
5 ttttttt.....
6 ttttttttt...
7 ttt..ttt....
8 ttt.ttt.....
9 ttt..t......
0 tt..........

Turn = 112.
  012345678901
0 .....r......
1 ...ttt.tt...
2 ...tt.ttt...
3 ..tttttttt..
4 ..tttttt.tt.
5 ttttttt.....
6 ttttttttt...
7 ttt..ttt....
8 ttt.ttt.....
9 ttt..t......
0 tt..........

Turn = 116.
  012345678901
0 .r..........
1 ...ttt.tt...
2 ...tt.ttt...
3 ..tttttttt..
4 ..tttttt.tt.
5 ttttttt.....
6 ttttttttt...
7 ttt..ttt....
8 ttt.ttt.....
9 ttt..t......
0 tt..........

Turn = 120.
  012345678901
0 .r..........
1 ...ttt.tt...
2 ...tt.ttt...
3 ..tttttttt..
4 ..tttttt.tt.
5 ttttttt.....
6 ttttttttt...
7 ttt..ttt....
8 ttt.ttt.....
9 ttt..t......
0 tt..........

Turn = 124.
  012345678901
0 .....r......
1 ...ttt.tt...
2 ...tt.ttt...
3 ..tttttttt..
4 ..tttttt.tt.
5 ttttttt.....
6 ttttttttt...
7 ttt..ttt....
8 ttt.ttt.....
9 ttt..t......
0 tt..........

Turn = 128.
  012345678901
0 .........r..
1 ...ttt.tt...
2 ...tt.ttt...
3 ..tttttttt..
4 ..tttttt.tt.
5 ttttttt.....
6 ttttttttt...
7 ttt..ttt....
8 ttt.ttt.....
9 ttt..t......
0 tt..........

Turn = 132.
  012345678901
0 ............
1 ...ttt.tt..r
2 ...tt.ttt...
3 ..tttttttt..
4 ..tttttt.tt.
5 ttttttt.....
6 ttttttttt...
7 ttt..ttt....
8 ttt.ttt.....
9 ttt..t......
0 tt..........

Turn = 136.
  012345678901
0 ............
1 ...ttt.tt...
2 ...tt.ttt...
3 ..tttttttt..
4 ..tttttt.tt.
5 ttttttt....r
6 ttttttttt...
7 ttt..ttt....
8 ttt.ttt.....
9 ttt..t......
0 tt..........

Turn = 140.
  012345678901
0 ............
1 ...ttt.tt...
2 ...tt.ttt...
3 ..tttttttt..
4 ..tttttt.tt.
5 ttttttt.....
6 ttttttttt...
7 ttt..ttt....
8 ttt.ttt.....
9 ttt..t.....r
0 tt..........

Turn = 144.
  012345678901
0 ............
1 ...ttt.tt...
2 ...tt.ttt...
3 ..tttttttt..
4 ..tttttt.tt.
5 ttttttt.....
6 ttttttttt...
7 ttt..ttt....
8 ttt.ttt.....
9 ttt..t......
0 tt.......r..

Turn = 148.
  012345678901
0 ............
1 ...ttt.tt...
2 ...tt.ttt...
3 ..tttttttt..
4 ..tttttt.tt.
5 ttttttt.....
6 ttttttttt...
7 ttt..ttt....
8 ttt.ttt.....
9 ttt..t......
0 tt...r......

Turn = 152.
  012345678901
0 ............
1 ...ttt.tt...
2 ...tt.ttt...
3 ..tttttttt..
4 ..tttttt.tt.
5 ttttttt.....
6 ttttttttt...
7 ttt..ttt....
8 ttt.ttt.....
9 ttt..t......
0 tt...t......

Turn = 156.
  012345678901
0 ............
1 ...ttt.tt...
2 ...tt.ttt...
3 ..tttttttt..
4 ..tttttt.tt.
5 ttttttt.....
6 ttttttttt...
7 ttt..ttt....
8 ttt.ttt.....
9 ttt..t......
0 tt...t......

Turn = 160.
  012345678901
0 ............
1 ...ttt.tt...
2 ...tt.ttt...
3 ..tttttttt..
4 ..tttttt.tt.
5 ttttttt.....
6 ttttttttt...
7 ttt..ttt....
8 ttt.ttt.....
9 ttt..t......
0 tt...t......

Turn = 164.
  012345678901
0 ............
1 ...ttt.tt...
2 ...tt.ttt...
3 ..tttttttt..
4 ..tttttt.tt.
5 ttttttt.....
6 ttttttttt...
7 ttt..ttt....
8 ttt.ttt.....
9 ttt..t......
0 tt...t......

Turn = 168.
  012345678901
0 ............
1 ...ttt.tt...
2 ...tt.ttt...
3 ..tttttttt..
4 ..tttttt.tt.
5 ttttttt.....
6 ttttttttt...
7 ttt..ttt....
8 ttt.ttt.....
9 ttt..t......
0 tt...t......

Turn = 172.
  012345678901
0 ............
1 ...ttt.tt...
2 ...tt.ttt...
3 ..tttttttt..
4 ..tttttt.tt.
5 ttttttt.....
6 ttttttttt...
7 ttt..ttt....
8 ttt.ttt.....
9 ttt..t......
0 tt...t......

Turn = 176.
  012345678901
0 ............
1 ...ttt.tt...
2 ...tt.ttt...
3 ..tttttttt..
4 ..tttttt.tt.
5 ttttttt.....
6 ttttttttt...
7 ttt..ttt....
8 ttt.ttt.....
9 ttt..t......
0 tt...t......

Turn = 180.
  012345678901
0 ............
1 ...ttt.tt...
2 ...tt.ttt...
3 ..tttttttt..
4 ..tttttt.tt.
5 ttttttt.....
6 ttttttttt...
7 ttt..ttt....
8 ttt.ttt.....
9 ttt..t......
0 tt...t......

Turn = 184.
  012345678901
0 ............
1 ...ttt.tt...
2 ...tt.ttt...
3 ..tttttttt..
4 ..tttttt.tt.
5 ttttttt.....
6 ttttttttt...
7 ttt..ttt....
8 ttt.ttt.....
9 ttt..t......
0 tt...t......

Turn = 188.
  012345678901
0 ............
1 ...ttt.tt...
2 ...tt.ttt...
3 ..tttttttt..
4 ..tttttt.tt.
5 ttttttt.....
6 ttttttttt...
7 ttt..ttt....
8 ttt.ttt.....
9 ttt..t......
0 tt...t......

Turn = 192.
  012345678901
0 ............
1 ...ttt.tt...
2 ...tt.ttt...
3 ..tttttttt..
4 ..tttttt.tt.
5 ttttttt.....
6 ttttttttt...
7 ttt..ttt....
8 ttt.ttt.....
9 ttt..t......
0 tt...t......

Turn = 196.
  012345678901
0 ............
1 ...ttt.tt...
2 ...tt.ttt...
3 ..tttttttt..
4 ..tttttt.tt.
5 ttttttt.....
6 ttttttttt...
7 ttt..ttt....
8 ttt.ttt.....
9 ttt..t......
0 tt...t......

Turn = 200.
  012345678901
0 ............
1 ...ttt.tt...
2 ...tt.ttt...
3 ..tttttttt..
4 ..tttttt.tt.
5 ttttttt.....
6 ttttttttt...
7 ttt..ttt....
8 ttt.ttt.....
9 ttt..t......
0 tt...t......

Turn = 204.
  012345678901
0 ............
1 ...ttt.tt...
2 ...tt.ttt...
3 ..tttttttt..
4 ..tttttt.tt.
5 ttttttt.....
6 ttttttttt...
7 ttt..ttt....
8 ttt.ttt.....
9 ttt..t......
0 tt...t......

Turn = 208.
  012345678901
0 ............
1 ...ttt.tt...
2 ...tt.ttt...
3 ..tttttttt..
4 ..tttttt.tt.
5 ttttttt.....
6 ttttttttt...
7 ttt..ttt....
8 ttt.ttt.....
9 ttt..t......
0 tt...t......

Turn = 212.
  012345678901
0 ............
1 ...ttt.tt...
2 ...tt.ttt...
3 ..tttttttt..
4 ..tttttt.tt.
5 ttttttt.....
6 ttttttttt...
7 ttt..ttt....
8 ttt.ttt.....
9 ttt..t......
0 tt...t......

Turn = 216.
  012345678901
0 ............
1 ...ttt.tt...
2 ...tt.ttt...
3 ..tttttttt..
4 ..tttttt.tt.
5 ttttttt.....
6 ttttttttt...
7 ttt..ttt....
8 ttt.ttt.....
9 ttt..t......
0 tt...t......

Turn = 220.
  012345678901
0 ............
1 ...ttt.tt...
2 ...tt.ttt...
3 ..tttttttt..
4 ..tttttt.tt.
5 ttttttt.....
6 ttttttttt...
7 ttt..ttt....
8 ttt.ttt.....
9 ttt..t......
0 tt...t......

Turn = 224.
  012345678901
0 ............
1 ...ttt.tt...
2 ...tt.ttt...
3 ..tttttttt..
4 ..tttttt.tt.
5 ttttttt.....
6 ttttttttt...
7 ttt..ttt....
8 ttt.ttt.....
9 ttt..t......
0 tt...t......

Turn = 228.
  012345678901
0 ............
1 ...ttt.tt...
2 ...tt.ttt...
3 ..tttttttt..
4 ..tttttt.tt.
5 ttttttt.....
6 ttttttttt...
7 ttt..ttt....
8 ttt.ttt.....
9 ttt..t......
0 tt...t......

Turn = 232.
  012345678901
0 ............
1 ...ttt.tt...
2 ...tt.ttt...
3 ..tttttttt..
4 ..tttttt.tt.
5 ttttttt.....
6 ttttttttt...
7 ttt..ttt....
8 ttt.ttt.....
9 ttt..t......
0 tt...t......

Turn = 236.
  012345678901
0 ............
1 ...ttt.tt...
2 ...tt.ttt...
3 ..tttttttt..
4 ..tttttt.tt.
5 ttttttt.....
6 ttttttttt...
7 ttt..ttt....
8 ttt.ttt.....
9 ttt..t......
0 tt...t......

Turn = 240.
  012345678901
0 ............
1 ...ttt.tt...
2 ...tt.ttt...
3 ..tttttttt..
4 ..tttttt.tt.
5 ttttttt.....
6 ttttttttt...
7 ttt..ttt....
8 ttt.ttt.....
9 ttt..t......
0 tt...t......

Turn = 244.
  012345678901
0 ............
1 ...ttt.tt...
2 ...tt.ttt...
3 ..tttttttt..
4 ..tttttt.tt.
5 ttttttt.....
6 ttttttttt...
7 ttt..ttt....
8 ttt.ttt.....
9 ttt..t......
0 tt...t......

Turn = 248.
  012345678901
0 ............
1 ...ttt.tt...
2 ...tt.ttt...
3 ..tttttttt..
4 ..tttttt.tt.
5 ttttttt.....
6 ttttttttt...
7 ttt..ttt....
8 ttt.ttt.....
9 ttt..t......
0 tt...t......

Turn = 252.
  012345678901
0 ............
1 ...ttt.tt...
2 ...tt.ttt...
3 ..tttttttt..
4 ..tttttt.tt.
5 ttttttt.....
6 ttttttttt...
7 ttt..ttt....
8 ttt.ttt.....
9 ttt..t......
0 tt...t......

Turn = 256.
  012345678901
0 ............
1 ...ttt.tt...
2 ...tt.ttt...
3 ..tttttttt..
4 ..tttttt.tt.
5 ttttttt.....
6 ttttttttt...
7 ttt..ttt....
8 ttt.ttt.....
9 ttt..t......
0 tt...t......

Turn = 260.
  012345678901
0 ............
1 ...ttt.tt...
2 ...tt.ttt...
3 ..tttttttt..
4 ..tttttt.tt.
5 ttttttt.....
6 ttttttttt...
7 ttt..ttt....
8 ttt.ttt.....
9 ttt..t......
0 tt...t......

Turn = 264.
  012345678901
0 ............
1 ...ttt.tt...
2 ...tt.ttt...
3 ..tttttttt..
4 ..tttttt.tt.
5 ttttttt.....
6 ttttttttt...
7 ttt..ttt....
8 ttt.ttt.....
9 ttt..t......
0 tt...t......

Turn = 268.
  012345678901
0 ............
1 ...ttt.tt...
2 ...tt.ttt...
3 ..tttttttt..
4 ..tttttt.tt.
5 ttttttt.....
6 ttttttttt...
7 ttt..ttt....
8 ttt.ttt.....
9 ttt..t......
0 tt...t......

Turn = 272.
  012345678901
0 ............
1 ...ttt.tt...
2 ...tt.ttt...
3 ..tttttttt..
4 ..tttttt.tt.
5 ttttttt.....
6 ttttttttt...
7 ttt..ttt....
8 ttt.ttt.....
9 ttt..t......
0 tt...t......

Turn = 276.
  012345678901
0 ............
1 ...ttt.tt...
2 ...tt.ttt...
3 ..tttttttt..
4 ..tttttt.tt.
5 ttttttt.....
6 ttttttttt...
7 ttt..ttt....
8 ttt.ttt.....
9 ttt..t......
0 tt...t......

Turn = 280.
  012345678901
0 ............
1 ...ttt.tt...
2 ...tt.ttt...
3 ..tttttttt..
4 ..tttttt.tt.
5 ttttttt.....
6 ttttttttt...
7 ttt..ttt....
8 ttt.ttt.....
9 ttt..t......
0 tt...t......

Turn = 284.
  012345678901
0 ............
1 ...ttt.tt...
2 ...tt.ttt...
3 ..tttttttt..
4 ..tttttt.tt.
5 ttttttt.....
6 ttttttttt...
7 ttt..ttt....
8 ttt.ttt.....
9 ttt..t......
0 tt...t......

Turn = 288.
  012345678901
0 ............
1 ...ttt.tt...
2 ...tt.ttt...
3 ..tttttttt..
4 ..tttttt.tt.
5 ttttttt.....
6 ttttttttt...
7 ttt..ttt....
8 ttt.ttt.....
9 ttt..t......
0 tt...t......

Turn = 292.
  012345678901
0 ............
1 ...ttt.tt...
2 ...tt.ttt...
3 ..tttttttt..
4 ..tttttt.tt.
5 ttttttt.....
6 ttttttttt...
7 ttt..ttt....
8 ttt.ttt.....
9 ttt..t......
0 tt...t......

Turn = 296.
  012345678901
0 ............
1 ...ttt.tt...
2 ...tt.ttt...
3 ..tttttttt..
4 ..tttttt.tt.
5 ttttttt.....
6 ttttttttt...
7 ttt..ttt....
8 ttt.ttt.....
9 ttt..t......
0 tt...t......

Turn = 300.
  012345678901
0 ............
1 ...ttt.tt...
2 ...tt.ttt...
3 ..tttttttt..
4 ..tttttt.tt.
5 ttttttt.....
6 ttttttttt...
7 ttt..ttt....
8 ttt.ttt.....
9 ttt..t......
0 tt...t......

Turn = 304.
  012345678901
0 ............
1 ...ttt.tt...
2 ...tt.ttt...
3 ..tttttttt..
4 ..tttttt.tt.
5 ttttttt.....
6 ttttttttt...
7 ttt..ttt....
8 ttt.ttt.....
9 ttt..t......
0 tt...t......

Turn = 308.
  012345678901
0 ............
1 ...ttt.tt...
2 ...tt.ttt...
3 ..tttttttt..
4 ..tttttt.tt.
5 ttttttt.....
6 ttttttttt...
7 ttt..ttt....
8 ttt.ttt.....
9 ttt..t......
0 tt...t......

Turn = 312.
  012345678901
0 ............
1 ...ttt.tt...
2 ...tt.ttt...
3 ..tttttttt..
4 ..tttttt.tt.
5 ttttttt.....
6 ttttttttt...
7 ttt..ttt....
8 ttt.ttt.....
9 ttt..t......
0 tt...t......

Turn = 316.
  012345678901
0 ............
1 ...ttt.tt...
2 ...tt.ttt...
3 ..tttttttt..
4 ..tttttt.tt.
5 ttttttt.....
6 ttttttttt...
7 ttt..ttt....
8 ttt.ttt.....
9 ttt..t......
0 tt...t......

Turn = 320.
  012345678901
0 ............
1 ...ttt.tt...
2 ...tt.ttt...
3 ..tttttttt..
4 ..tttttt.tt.
5 ttttttt.....
6 ttttttttt...
7 ttt..ttt....
8 ttt.ttt.....
9 ttt..t......
0 tt...t......

Turn = 324.
  012345678901
0 ............
1 ...ttt.tt...
2 ...tt.ttt...
3 ..tttttttt..
4 ..tttttt.tt.
5 ttttttt.....
6 ttttttttt...
7 ttt..ttt....
8 ttt.ttt.....
9 ttt..t......
0 tt...t......

Turn = 328.
  012345678901
0 ............
1 ...ttt.tt...
2 ...tt.ttt...
3 ..tttttttt..
4 ..tttttt.tt.
5 ttttttt.....
6 ttttttttt...
7 ttt..ttt....
8 ttt.ttt.....
9 ttt..t......
0 tt...t......

Turn = 332.
  012345678901
0 ............
1 ...ttt.tt...
2 ...tt.ttt...
3 ..tttttttt..
4 ..tttttt.tt.
5 ttttttt.....
6 ttttttttt...
7 ttt..ttt....
8 ttt.ttt.....
9 ttt..t......
0 tt...t......

Turn = 336.
  012345678901
0 ............
1 ...ttt.tt...
2 ...tt.ttt...
3 ..tttttttt..
4 ..tttttt.tt.
5 ttttttt.....
6 ttttttttt...
7 ttt..ttt....
8 ttt.ttt.....
9 ttt..t......
0 tt...t......

Turn = 340.
  012345678901
0 ............
1 ...ttt.tt...
2 ...tt.ttt...
3 ..tttttttt..
4 ..tttttt.tt.
5 ttttttt.....
6 ttttttttt...
7 ttt..ttt....
8 ttt.ttt.....
9 ttt..t......
0 tt...t......

Turn = 344.
  012345678901
0 ............
1 ...ttt.tt...
2 ...tt.ttt...
3 ..tttttttt..
4 ..tttttt.tt.
5 ttttttt.....
6 ttttttttt...
7 ttt..ttt....
8 ttt.ttt.....
9 ttt..t......
0 tt...t......

Turn = 348.
  012345678901
0 ............
1 ...ttt.tt...
2 ...tt.ttt...
3 ..tttttttt..
4 ..tttttt.tt.
5 ttttttt.....
6 ttttttttt...
7 ttt..ttt....
8 ttt.ttt.....
9 ttt..t......
0 tt...t......

Turn = 352.
  012345678901
0 ............
1 ...ttt.tt...
2 ...tt.ttt...
3 ..tttttttt..
4 ..tttttt.tt.
5 ttttttt.....
6 ttttttttt...
7 ttt..ttt....
8 ttt.ttt.....
9 ttt..t......
0 tt...t......

Turn = 356.
  012345678901
0 ............
1 ...ttt.tt...
2 ...tt.ttt...
3 ..tttttttt..
4 ..tttttt.tt.
5 ttttttt.....
6 ttttttttt...
7 ttt..ttt....
8 ttt.ttt.....
9 ttt..t......
0 tt...t......

Turn = 360.
  012345678901
0 ............
1 ...ttt.tt...
2 ...tt.ttt...
3 ..tttttttt..
4 ..tttttt.tt.
5 ttttttt.....
6 ttttttttt...
7 ttt..ttt....
8 ttt.ttt.....
9 ttt..t......
0 tt...t......

Turn = 364.
  012345678901
0 ............
1 ...ttt.tt...
2 ...tt.ttt...
3 ..tttttttt..
4 ..tttttt.tt.
5 ttttttt.....
6 ttttttttt...
7 ttt..ttt....
8 ttt.ttt.....
9 ttt..t......
0 tt...t......

Turn = 368.
  012345678901
0 ............
1 ...ttt.tt...
2 ...tt.ttt...
3 ..tttttttt..
4 ..tttttt.tt.
5 ttttttt.....
6 ttttttttt...
7 ttt..ttt....
8 ttt.ttt.....
9 ttt..t......
0 tt...t......

Turn = 372.
  012345678901
0 ............
1 ...ttt.tt...
2 ...tt.ttt...
3 ..tttttttt..
4 ..tttttt.tt.
5 ttttttt.....
6 ttttttttt...
7 ttt..ttt....
8 ttt.ttt.....
9 ttt..t......
0 tt...t......

Turn = 376.
  012345678901
0 ............
1 ...ttt.tt...
2 ...tt.ttt...
3 ..tttttttt..
4 ..tttttt.tt.
5 ttttttt.....
6 ttttttttt...
7 ttt..ttt....
8 ttt.ttt.....
9 ttt..t......
0 tt...t......

Turn = 380.
  012345678901
0 ............
1 ...ttt.tt...
2 ...tt.ttt...
3 ..tttttttt..
4 ..tttttt.tt.
5 ttttttt.....
6 ttttttttt...
7 ttt..ttt....
8 ttt.ttt.....
9 ttt..t......
0 tt...t......

Turn = 384.
  012345678901
0 ............
1 ...ttt.tt...
2 ...tt.ttt...
3 ..tttttttt..
4 ..tttttt.tt.
5 ttttttt.....
6 ttttttttt...
7 ttt..ttt....
8 ttt.ttt.....
9 ttt..t......
0 tt...t......

Turn = 388.
  012345678901
0 ............
1 ...ttt.tt...
2 ...tt.ttt...
3 ..tttttttt..
4 ..tttttt.tt.
5 ttttttt.....
6 ttttttttt...
7 ttt..ttt....
8 ttt.ttt.....
9 ttt..t......
0 tt...t......

Turn = 392.
  012345678901
0 ............
1 ...ttt.tt...
2 ...tt.ttt...
3 ..tttttttt..
4 ..tttttt.tt.
5 ttttttt.....
6 ttttttttt...
7 ttt..ttt....
8 ttt.ttt.....
9 ttt..t......
0 tt...t......

Turn = 396.
  012345678901
0 ............
1 ...ttt.tt...
2 ...tt.ttt...
3 ..tttttttt..
4 ..tttttt.tt.
5 ttttttt.....
6 ttttttttt...
7 ttt..ttt....
8 ttt.ttt.....
9 ttt..t......
0 tt...t......

Turn = 400.
  012345678901
0 ............
1 ...ttt.tt...
2 ...tt.ttt...
3 ..tttttttt..
4 ..tttttt.tt.
5 ttttttt.....
6 ttttttttt...
7 ttt..ttt....
8 ttt.ttt.....
9 ttt..t......
0 tt...t......

Turn = 404.
  012345678901
0 ............
1 ...ttt.tt...
2 ...tt.ttt...
3 ..tttttttt..
4 ..tttttt.tt.
5 ttttttt.....
6 ttttttttt...
7 ttt..ttt....
8 ttt.ttt.....
9 ttt..t......
0 tt...t......

Turn = 408.
  012345678901
0 ............
1 ...ttt.tt...
2 ...tt.ttt...
3 ..tttttttt..
4 ..tttttt.tt.
5 ttttttt.....
6 ttttttttt...
7 ttt..ttt....
8 ttt.ttt.....
9 ttt..t......
0 tt...t......

Turn = 412.
  012345678901
0 ............
1 ...ttt.tt...
2 ...tt.ttt...
3 ..tttttttt..
4 ..tttttt.tt.
5 ttttttt.....
6 ttttttttt...
7 ttt..ttt....
8 ttt.ttt.....
9 ttt..t......
0 tt...t......

Turn = 416.
  012345678901
0 ............
1 ...ttt.tt...
2 ...tt.ttt...
3 ..tttttttt..
4 ..tttttt.tt.
5 ttttttt.....
6 ttttttttt...
7 ttt..ttt....
8 ttt.ttt.....
9 ttt..t......
0 tt...t......

Turn = 420.
  012345678901
0 ............
1 ...ttt.tt...
2 ...tt.ttt...
3 ..tttttttt..
4 ..tttttt.tt.
5 ttttttt.....
6 ttttttttt...
7 ttt..ttt....
8 ttt.ttt.....
9 ttt..t......
0 tt...t......

Turn = 424.
  012345678901
0 ............
1 ...ttt.tt...
2 ...tt.ttt...
3 ..tttttttt..
4 ..tttttt.tt.
5 ttttttt.....
6 ttttttttt...
7 ttt..ttt....
8 ttt.ttt.....
9 ttt..t......
0 tt...t......

Turn = 428.
  012345678901
0 ............
1 ...ttt.tt...
2 ...tt.ttt...
3 ..tttttttt..
4 ..tttttt.tt.
5 ttttttt.....
6 ttttttttt...
7 ttt..ttt....
8 ttt.ttt.....
9 ttt..t......
0 tt...t......

Turn = 432.
  012345678901
0 ............
1 ...ttt.tt...
2 ...tt.ttt...
3 ..tttttttt..
4 ..tttttt.tt.
5 ttttttt.....
6 ttttttttt...
7 ttt..ttt....
8 ttt.ttt.....
9 ttt..t......
0 tt...t......

Turn = 436.
  012345678901
0 ............
1 ...ttt.tt...
2 ...tt.ttt...
3 ..tttttttt..
4 ..tttttt.tt.
5 ttttttt.....
6 ttttttttt...
7 ttt..ttt....
8 ttt.ttt.....
9 ttt..t......
0 tt...t......

Turn = 440.
  012345678901
0 ............
1 ...ttt.tt...
2 ...tt.ttt...
3 ..tttttttt..
4 ..tttttt.tt.
5 ttttttt.....
6 ttttttttt...
7 ttt..ttt....
8 ttt.ttt.....
9 ttt..t......
0 tt...t......

Turn = 444.
  012345678901
0 ............
1 ...ttt.tt...
2 ...tt.ttt...
3 ..tttttttt..
4 ..tttttt.tt.
5 ttttttt.....
6 ttttttttt...
7 ttt..ttt....
8 ttt.ttt.....
9 ttt..t......
0 tt...t......

*** Darwin 14x16 ***
Turn = 0.
  0123456789012345
0 ft..t....th....t
1 t......rrf...t..
2 ..f.t...........
3 .r.t.r.rh......r
4 ........t.....f.
5 ..f....r.hr.h...
6 f.f...tf....tt.f
7 hf.tt.ht.t...f..
8 .r......f...ht..
9 .....t..r..r..h.
0 r....r...fr..t.r
1 ....f...f..h....
2 .....h...hh.r.rf
3 fh.t.f.f.f.t.h..

Turn = 75.
  0123456789012345
0 tttttt.....rrr..
1 tttt......rrr...
2 tttttt.....rtt..
3 ttt.ttt..r.....r
4 tt..t.t........r
5 .t..............
6 ..........r.r...
7 .....r.tt...r...
8 .......trr......
9 .....ttt.r....r.
0 r....ttttttt...r
1 ......t.........
2 ......tr........
3 ...rrrrr....rr..

Turn = 150.
  0123456789012345
0 tttttttttt......
1 ttttttttt.......
2 ttttttt.........
3 tttttt..........
4 tt..tt..........
5 tt..............
6 t......tt.......
7 t.....tttt.t....
8 r....ttttttt....
9 .....ttt...tt...
0 .....ttttttt....
1 .....tt.t.t.....
2 ..........t.....
3 ................

Turn = 225.
  0123456789012345
0 tttttttttt......
1 ttttttttt.......
2 ttttttt.........
3 tttttt..........
4 tt..tt..........
5 tt..............
6 t......tt.......
7 t.....tttt.t....
8 t....ttttttt....
9 .....ttt...tt...
0 .....ttttttt....
1 .....tt.t.t.....
2 ..........t.....
3 ................

Turn = 300.
  0123456789012345
0 tttttttttt......
1 ttttttttt.......
2 ttttttt.........
3 tttttt..........
4 tt..tt..........
5 tt..............
6 t......tt.......
7 t.....tttt.t....
8 t....ttttttt....
9 .....ttt...tt...
0 .....ttttttt....
1 .....tt.t.t.....
2 ..........t.....
3 ................

Turn = 375.
  0123456789012345
0 tttttttttt......
1 ttttttttt.......
2 ttttttt.........
3 tttttt..........
4 tt..tt..........
5 tt..............
6 t......tt.......
7 t.....tttt.t....
8 t....ttttttt....
9 .....ttt...tt...
0 .....ttttttt....
1 .....tt.t.t.....
2 ..........t.....
3 ................

Turn = 450.
  0123456789012345
0 tttttttttt......
1 ttttttttt.......
2 ttttttt.........
3 tttttt..........
4 tt..tt..........
5 tt..............
6 t......tt.......
7 t.....tttt.t....
8 t....ttttttt....
9 .....ttt...tt...
0 .....ttttttt....
1 .....tt.t.t.....
2 ..........t.....
3 ................

Turn = 525.
  0123456789012345
0 tttttttttt......
1 ttttttttt.......
2 ttttttt.........
3 tttttt..........
4 tt..tt..........
5 tt..............
6 t......tt.......
7 t.....tttt.t....
8 t....ttttttt....
9 .....ttt...tt...
0 .....ttttttt....
1 .....tt.t.t.....
2 ..........t.....
3 ................

*** Darwin 20x13 ***
Turn = 0.
  0123456789012
0 ..ftrhfhh.t..
1 .hh..t..hfrr.
2 hth...f.h.th.
3 ....t..fh..tr
4 h.r...rh.f..r
5 ..htf.f.r.f.t
6 hh....ht....f
7 ....rrt..f.tf
8 .fr.f.f...rf.
9 f...f.t.hh.t.
0 h....r.f...t.
1 .f..t.t...rt.
2 r.thfttr.hf..
3 ...f...t..t.f
4 .f.rr...f.t..
5 ..thh..h....f
6 hh.r.h.r.....
7 .trrr...t.rrf
8 t.h.thtf.t.f.
9 ..rh..f.....t

Turn = 95.
  0123456789012
0 r.r.r.rr.r.rr
1 rrrrrr.r..r..
2 rrrr.rrr..r..
3 rr.rr..rr....
4 rrr...r.....r
5 rrr..........
6 r.rr..rr.....
7 .r.rrrr......
8 r.r..rrr..r..
9 .r...r....r..
0 rrr..rr.rrrrr
1 rr..r.r..r.r.
2 .rr....r.r..r
3 rr.......rrrr
4 ..rr.....r.rr
5 rr........r..
6 rrr...rrrr...
7 rrr..r.r..r..
8 rr.r..r...rr.
9 rrr..r.r.rrrr
